1.081594e+01	-1.104900e+01
2.493359e+01	-1.104900e+01
3.096774e+01	-1.109133e+01
3.666034e+01	-1.109133e+01
4.303605e+01	-1.111250e+01
4.986717e+01	-1.113367e+01
5.772296e+01	-1.113367e+01
7.104364e+01	-1.117600e+01
8.151803e+01	-1.115483e+01
9.313093e+01	-1.119717e+01
1.024668e+02	-1.119717e+01
1.153321e+02	-1.123950e+01
1.177230e+02	-1.123950e+01
1.196584e+02	-1.119717e+01
1.211385e+02	-1.100667e+01
1.228463e+02	-1.119717e+01
1.238710e+02	-1.119717e+01
1.252372e+02	-1.081617e+01
1.263757e+02	-1.123950e+01
1.274004e+02	-1.166283e+01
1.281973e+02	-1.132417e+01
1.300190e+02	-1.107017e+01
1.312713e+02	-1.147233e+01
1.319545e+02	-1.119717e+01
1.332068e+02	-1.159933e+01
1.338899e+02	-1.130300e+01
1.355977e+02	-1.107017e+01
1.366224e+02	-1.159933e+01
1.374194e+02	-1.123950e+01
1.386717e+02	-1.162050e+01
1.393548e+02	-1.054100e+01
1.402657e+02	-1.123950e+01
1.409488e+02	-1.159933e+01
1.416319e+02	-1.157817e+01
1.425427e+02	-1.187450e+01
1.427704e+02	-1.102783e+01
1.433397e+02	-1.016000e+01
1.449336e+02	-1.246717e+01
1.455028e+02	-1.140883e+01
1.459583e+02	-1.064683e+01
1.474383e+02	-1.115483e+01
1.481214e+02	-1.121833e+01
1.497154e+02	-1.098550e+01
1.506262e+02	-1.174750e+01
1.509677e+02	-1.066800e+01
1.514231e+02	-1.058333e+01
1.519924e+02	-1.102783e+01
1.527894e+02	-1.079500e+01
1.543833e+02	-1.314450e+01
1.548387e+02	-1.265767e+01
1.548387e+02	-1.191683e+01
1.547249e+02	-1.092200e+01
1.548387e+02	-1.013883e+01
1.548387e+02	-9.376833e+00
1.551803e+02	-9.059333e+00
1.558634e+02	-1.037167e+01
1.563188e+02	-1.178983e+01
1.566603e+02	-1.244600e+01
1.572296e+02	-1.257300e+01
1.576850e+02	-1.217083e+01
1.580266e+02	-1.104900e+01
1.585958e+02	-1.035050e+01
1.593928e+02	-1.126067e+01
1.599620e+02	-1.208617e+01
1.603036e+02	-1.246717e+01
1.605313e+02	-1.098550e+01
1.605313e+02	-1.009650e+01
1.608729e+02	-9.482667e+00
1.613283e+02	-1.066800e+01
1.622391e+02	-1.202267e+01
1.626945e+02	-1.149350e+01
1.634915e+02	-1.087967e+01
1.645161e+02	-1.193800e+01
1.648577e+02	-1.126067e+01
1.649715e+02	-1.058333e+01
1.653131e+02	-1.013883e+01
1.661101e+02	-1.159933e+01
1.664516e+02	-1.282700e+01
1.669070e+02	-1.377950e+01
1.671347e+02	-1.416050e+01
1.671347e+02	-1.231900e+01
1.671347e+02	-1.104900e+01
1.669070e+02	-9.757833e+00
1.672486e+02	-8.741833e+00
1.679317e+02	-1.041400e+01
1.683871e+02	-1.155700e+01
1.688425e+02	-1.236133e+01
1.696395e+02	-1.327150e+01
1.698672e+02	-1.151467e+01
1.702087e+02	-1.037167e+01
1.708918e+02	-1.062567e+01
1.712334e+02	-1.087967e+01
1.713472e+02	-1.121833e+01
1.723719e+02	-1.096433e+01
1.733966e+02	-1.102783e+01
1.740797e+02	-1.178983e+01
1.744213e+02	-1.227667e+01
1.747628e+02	-1.170517e+01
1.746490e+02	-1.037167e+01
1.747628e+02	-9.271000e+00
1.755598e+02	-1.087967e+01
1.760152e+02	-1.214967e+01
1.766983e+02	-1.295400e+01
1.769260e+02	-1.107017e+01
1.769260e+02	-1.054100e+01
1.771537e+02	-1.043517e+01
1.778368e+02	-1.087967e+01
1.784061e+02	-1.049867e+01
1.788615e+02	-1.145117e+01
1.792030e+02	-1.229783e+01
1.798861e+02	-1.318683e+01
1.801139e+02	-1.236133e+01
1.805693e+02	-1.077383e+01
1.806831e+02	-9.503833e+00
1.809108e+02	-8.212667e+00
1.815939e+02	-9.440333e+00
1.820493e+02	-1.073150e+01
1.827324e+02	-1.293283e+01
1.831879e+02	-1.413933e+01
1.838710e+02	-1.445683e+01
1.838710e+02	-1.286933e+01
1.836433e+02	-1.083733e+01
1.833017e+02	-9.313333e+00
1.837571e+02	-8.784167e+00
1.845541e+02	-1.077383e+01
1.850095e+02	-1.202267e+01
1.859203e+02	-1.225550e+01
1.859203e+02	-1.107017e+01
1.859203e+02	-9.525000e+00
1.860342e+02	-8.720667e+00
1.866034e+02	-1.041400e+01
1.869450e+02	-1.162050e+01
1.874004e+02	-1.325033e+01
1.879696e+02	-1.388533e+01
1.878558e+02	-1.231900e+01
1.877419e+02	-1.094317e+01
1.878558e+02	-1.037167e+01
1.886528e+02	-1.130300e+01
1.892220e+02	-1.174750e+01
1.893359e+02	-1.060450e+01
1.896774e+02	-1.001183e+01
1.903605e+02	-1.130300e+01
1.909298e+02	-1.227667e+01
1.919545e+02	-1.212850e+01
1.922960e+02	-1.113367e+01
1.922960e+02	-1.043517e+01
1.927514e+02	-1.005417e+01
1.933207e+02	-1.132417e+01
1.941176e+02	-1.322917e+01
1.945731e+02	-1.250950e+01
1.949146e+02	-1.138767e+01
1.950285e+02	-1.016000e+01
1.953700e+02	-9.313333e+00
1.960531e+02	-1.107017e+01
1.968501e+02	-1.289050e+01
1.969639e+02	-1.132417e+01
1.970778e+02	-1.043517e+01
1.973055e+02	-1.013883e+01
1.982163e+02	-1.176867e+01
1.985579e+02	-1.282700e+01
1.988994e+02	-1.322917e+01
1.990133e+02	-1.212850e+01
1.988994e+02	-1.083733e+01
1.988994e+02	-1.009650e+01
1.992410e+02	-9.482667e+00
2.001518e+02	-1.145117e+01
2.007211e+02	-1.195917e+01
2.011765e+02	-1.119717e+01
2.014042e+02	-1.030817e+01
2.017457e+02	-9.567333e+00
2.026565e+02	-1.174750e+01
2.034535e+02	-1.371600e+01
2.041366e+02	-1.502833e+01
2.045920e+02	-1.551517e+01
2.044782e+02	-1.325033e+01
2.041366e+02	-1.060450e+01
2.041366e+02	-8.847667e+00
2.043643e+02	-8.212667e+00
2.056167e+02	-1.024467e+01
2.064137e+02	-1.214967e+01
2.072106e+02	-1.428750e+01
2.082353e+02	-1.619250e+01
2.077799e+02	-1.371600e+01
2.073245e+02	-1.083733e+01
2.073245e+02	-9.080500e+00
2.073245e+02	-7.471833e+00
2.075522e+02	-6.244167e+00
2.082353e+02	-9.271000e+00
2.085769e+02	-1.126067e+01
2.094877e+02	-1.386417e+01
2.108539e+02	-1.623483e+01
2.102846e+02	-1.293283e+01
2.100569e+02	-9.736667e+00
2.102846e+02	-8.720667e+00
2.108539e+02	-8.360833e+00
2.115370e+02	-1.043517e+01
2.121063e+02	-1.240367e+01
2.129032e+02	-1.471083e+01
2.138140e+02	-1.593850e+01
2.133586e+02	-1.314450e+01
2.132448e+02	-1.138767e+01
2.132448e+02	-9.461500e+00
2.135863e+02	-8.297333e+00
2.143833e+02	-1.037167e+01
2.150664e+02	-1.257300e+01
2.157495e+02	-1.365250e+01
2.156357e+02	-1.073150e+01
2.156357e+02	-9.249833e+00
2.158634e+02	-8.318500e+00
2.165465e+02	-1.026583e+01
2.172296e+02	-1.246717e+01
2.179127e+02	-1.466850e+01
2.189374e+02	-1.725083e+01
2.198482e+02	-1.856317e+01
2.192789e+02	-1.608667e+01
2.184820e+02	-1.325033e+01
2.180266e+02	-9.376833e+00
2.182543e+02	-6.773333e+00
2.184820e+02	-8.572500e+00
2.190512e+02	-7.641167e+00
2.193928e+02	-9.292167e+00
2.201898e+02	-1.225550e+01
2.208729e+02	-1.507067e+01
2.218975e+02	-1.731433e+01
2.228083e+02	-1.943100e+01
2.244023e+02	-2.171700e+01
2.231499e+02	-1.873250e+01
2.221252e+02	-1.615017e+01
2.212144e+02	-1.295400e+01
2.205313e+02	-1.003300e+01
2.205313e+02	-8.445500e+00
2.205313e+02	-6.265333e+00
2.205313e+02	-4.508500e+00
2.209867e+02	-2.963333e+00
2.211006e+02	-5.143500e+00
2.213283e+02	-7.662333e+00
2.215560e+02	-9.715500e+00
2.222391e+02	-1.265767e+01
2.230361e+02	-1.494367e+01
2.238330e+02	-1.667933e+01
2.241746e+02	-1.746250e+01
2.240607e+02	-1.631950e+01
2.234915e+02	-1.403350e+01
2.230361e+02	-1.214967e+01
2.226945e+02	-9.757833e+00
2.226945e+02	-7.387167e+00
2.229222e+02	-5.143500e+00
2.234915e+02	-8.382000e+00
2.239469e+02	-1.104900e+01
2.242884e+02	-1.236133e+01
2.250854e+02	-1.458383e+01
2.259962e+02	-1.684867e+01
2.273624e+02	-1.917700e+01
2.267932e+02	-1.686983e+01
2.258824e+02	-1.437217e+01
2.256546e+02	-1.229783e+01
2.253131e+02	-9.927167e+00
2.253131e+02	-7.831667e+00
2.254269e+02	-5.524500e+00
2.258824e+02	-7.810500e+00
2.264516e+02	-1.011767e+01
2.270209e+02	-1.219200e+01
2.275901e+02	-1.325033e+01
2.279317e+02	-1.172633e+01
2.285009e+02	-1.344083e+01
2.292979e+02	-1.502833e+01
2.289564e+02	-1.289050e+01
2.287287e+02	-1.094317e+01
2.287287e+02	-9.228667e+00
2.287287e+02	-7.408333e+00
2.294118e+02	-1.030817e+01
2.299810e+02	-1.181100e+01
2.307780e+02	-1.318683e+01
2.311195e+02	-1.102783e+01
2.312334e+02	-9.017000e+00
2.315750e+02	-7.831667e+00
2.323719e+02	-9.990667e+00
2.330550e+02	-1.227667e+01
2.337381e+02	-1.432983e+01
2.348767e+02	-1.638300e+01
2.344213e+02	-1.375833e+01
2.343074e+02	-1.147233e+01
2.345351e+02	-9.461500e+00
2.346490e+02	-7.747000e+00
2.356736e+02	-9.821333e+00
2.362429e+02	-1.143000e+01
2.365844e+02	-1.314450e+01
2.372676e+02	-1.462617e+01
2.378368e+02	-1.562100e+01
2.376091e+02	-1.331383e+01
2.374953e+02	-1.168400e+01
2.378368e+02	-1.134533e+01
2.384061e+02	-1.162050e+01
2.386338e+02	-9.694333e+00
2.388615e+02	-7.768167e+00
2.390892e+02	-5.566833e+00
2.393169e+02	-4.868333e+00
2.396584e+02	-6.985000e+00
2.398861e+02	-9.017000e+00
2.405693e+02	-1.155700e+01
2.410247e+02	-1.322917e+01
2.417078e+02	-1.507067e+01
2.422770e+02	-1.670050e+01
2.431879e+02	-1.830917e+01
2.442125e+02	-2.034117e+01
2.452372e+02	-2.146300e+01
2.445541e+02	-1.945217e+01
2.434156e+02	-1.699683e+01
2.427324e+02	-1.464733e+01
2.422770e+02	-1.265767e+01
2.419355e+02	-1.077383e+01
2.420493e+02	-8.720667e+00
2.420493e+02	-6.709833e+00
2.420493e+02	-4.487333e+00
2.425047e+02	-3.365500e+00
2.427324e+02	-7.217833e+00
2.429602e+02	-9.398000e+00
2.434156e+02	-1.157817e+01
2.438710e+02	-1.280583e+01
2.445541e+02	-1.530350e+01
2.454649e+02	-1.661583e+01
2.448956e+02	-1.363133e+01
2.444402e+02	-1.128183e+01
2.442125e+02	-8.911167e+00
2.445541e+02	-7.810500e+00
2.451233e+02	-9.715500e+00
2.456926e+02	-1.143000e+01
2.460342e+02	-1.261533e+01
2.464896e+02	-1.314450e+01
2.462619e+02	-1.064683e+01
2.463757e+02	-9.503833e+00
2.468311e+02	-8.805333e+00
2.476281e+02	-1.056217e+01
2.484250e+02	-1.217083e+01
2.488805e+02	-1.397000e+01
2.496774e+02	-1.540933e+01
2.502467e+02	-1.680633e+01
2.510436e+02	-1.828800e+01
2.519545e+02	-1.993900e+01
2.528653e+02	-2.144183e+01
2.532068e+02	-2.178050e+01
2.526376e+02	-2.010833e+01
2.516129e+02	-1.792817e+01
2.510436e+02	-1.576917e+01
2.504744e+02	-1.397000e+01
2.500190e+02	-1.178983e+01
2.497913e+02	-9.461500e+00
2.496774e+02	-7.556500e+00
2.497913e+02	-5.799667e+00
2.499051e+02	-4.275667e+00
2.501328e+02	-2.370667e+00
2.504744e+02	-8.890000e-01
2.509298e+02	4.868333e-01
2.508159e+02	-2.222500e+00
2.507021e+02	-4.550833e+00
2.508159e+02	-6.815667e+00
2.509298e+02	-8.593667e+00
2.512713e+02	-1.045633e+01
2.518406e+02	-1.198033e+01
2.525237e+02	-1.422400e+01
2.532068e+02	-1.604433e+01
2.536622e+02	-1.676400e+01
2.537761e+02	-1.547283e+01
2.536622e+02	-1.388533e+01
2.534345e+02	-1.195917e+01
2.533207e+02	-9.821333e+00
2.533207e+02	-7.831667e+00
2.534345e+02	-5.926667e+00
2.535484e+02	-4.064000e+00
2.537761e+02	-2.180167e+00
2.542315e+02	-1.354667e+00
2.543454e+02	-4.085167e+00
2.545731e+02	-7.090833e+00
2.545731e+02	-8.657167e+00
2.549146e+02	-1.090083e+01
2.557116e+02	-1.346200e+01
2.566224e+02	-1.576917e+01
2.578748e+02	-1.824567e+01
2.594687e+02	-2.078567e+01
2.612903e+02	-2.315633e+01
2.602657e+02	-2.012950e+01
2.588994e+02	-1.754717e+01
2.581025e+02	-1.509183e+01
2.575332e+02	-1.246717e+01
2.570778e+02	-9.440333e+00
2.570778e+02	-6.963833e+00
2.570778e+02	-4.402667e+00
2.574194e+02	-2.074333e+00
2.578748e+02	-8.466667e-02
2.583302e+02	2.243667e+00
2.588994e+02	3.767667e+00
2.594687e+02	4.762500e+00
2.590133e+02	2.137833e+00
2.584440e+02	-2.963333e-01
2.581025e+02	-2.518833e+00
2.579886e+02	-5.270500e+00
2.579886e+02	-7.979833e+00
2.585579e+02	-1.100667e+01
2.591271e+02	-1.352550e+01
2.599241e+02	-1.540933e+01
2.603795e+02	-1.667933e+01
2.614042e+02	-1.875367e+01
2.624288e+02	-2.078567e+01
2.634535e+02	-2.260600e+01
2.651613e+02	-2.506133e+01
2.673245e+02	-2.796117e+01
2.702846e+02	-3.100917e+01
2.677799e+02	-2.758017e+01
2.664137e+02	-2.559050e+01
2.650474e+02	-2.330450e+01
2.641366e+02	-2.214033e+01
2.636812e+02	-2.076450e+01
2.632258e+02	-1.996017e+01
2.627704e+02	-1.911350e+01
2.624288e+02	-1.824567e+01
2.620873e+02	-1.735667e+01
2.616319e+02	-1.629833e+01
2.614042e+02	-1.545167e+01
2.608349e+02	-1.377950e+01
2.604934e+02	-1.191683e+01
2.601518e+02	-9.652000e+00
2.600380e+02	-7.725833e+00
2.600380e+02	-5.524500e+00
2.601518e+02	-2.878667e+00
2.603795e+02	-1.460500e+00
2.609488e+02	3.810000e-01
2.615180e+02	2.180167e+00
2.620873e+02	4.381500e+00
2.627704e+02	6.223000e+00
2.635674e+02	8.064500e+00
2.645920e+02	1.003300e+01
2.660721e+02	1.265767e+01
2.677799e+02	1.504950e+01
2.698292e+02	1.731433e+01
2.680076e+02	1.452033e+01
2.668691e+02	1.265767e+01
2.659583e+02	1.100667e+01
2.647059e+02	8.784167e+00
2.640228e+02	7.196667e+00
2.635674e+02	6.117167e+00
2.629981e+02	4.529667e+00
2.623150e+02	2.518833e+00
2.618596e+02	2.963333e-01
2.614042e+02	-1.905000e+00
2.612903e+02	-3.153833e+00
2.611765e+02	-4.466167e+00
2.612903e+02	-7.069667e+00
2.614042e+02	-8.339667e+00
2.617457e+02	-1.011767e+01
2.622011e+02	-1.234017e+01
2.627704e+02	-1.504950e+01
2.635674e+02	-1.663700e+01
2.644782e+02	-1.873250e+01
2.652751e+02	-2.053167e+01
2.669829e+02	-2.343150e+01
2.682353e+02	-2.535767e+01
2.705123e+02	-2.813050e+01
2.734725e+02	-3.166533e+01
2.764326e+02	-3.473450e+01
2.771157e+02	-3.511550e+01
2.766603e+02	-3.450167e+01
2.750664e+02	-3.278717e+01
2.725617e+02	-3.009900e+01
2.705123e+02	-2.758017e+01
2.691461e+02	-2.565400e+01
2.682353e+02	-2.423583e+01
2.673245e+02	-2.281767e+01
2.665275e+02	-2.127250e+01
2.657306e+02	-1.974850e+01
2.647059e+02	-1.748367e+01
2.639089e+02	-1.579033e+01
2.633397e+02	-1.394883e+01
2.627704e+02	-1.077383e+01
2.625427e+02	-9.398000e+00
2.625427e+02	-8.106833e+00
2.625427e+02	-6.540500e+00
2.625427e+02	-4.931833e+00
2.626565e+02	-2.921000e+00
2.626565e+02	-1.143000e+00
2.629981e+02	-6.350000e-02
2.631120e+02	9.313333e-01
2.636812e+02	2.074333e+00
2.640228e+02	3.556000e+00
2.645920e+02	5.185833e+00
2.651613e+02	6.498167e+00
2.657306e+02	8.149167e+00
2.664137e+02	9.482667e+00
2.680076e+02	1.181100e+01
2.689184e+02	1.350433e+01
2.696015e+02	1.456267e+01
2.705123e+02	1.574800e+01
2.722201e+02	1.778000e+01
2.731309e+02	1.883833e+01
2.743833e+02	2.027767e+01
2.763188e+02	2.222500e+01
2.783681e+02	2.410883e+01
2.816698e+02	2.673350e+01
2.787097e+02	2.379133e+01
2.774573e+02	2.239433e+01
2.755218e+02	2.048933e+01
2.740417e+02	1.879600e+01
2.727894e+02	1.739900e+01
2.716509e+02	1.587500e+01
2.706262e+02	1.452033e+01
2.697154e+02	1.325033e+01
2.690323e+02	1.181100e+01
2.677799e+02	9.863667e+00
2.670968e+02	8.466667e+00
2.662998e+02	6.434667e+00
2.655028e+02	4.318000e+00
2.650474e+02	2.921000e+00
2.644782e+02	8.890000e-01
2.639089e+02	-1.206500e+00
2.637951e+02	-2.751667e+00
2.637951e+02	-4.593167e+00
2.637951e+02	-6.667500e+00
2.637951e+02	-7.916333e+00
2.640228e+02	-9.080500e+00
2.641366e+02	-1.037167e+01
2.643643e+02	-1.176867e+01
2.649336e+02	-1.416050e+01
2.653890e+02	-1.581150e+01
2.661860e+02	-1.756833e+01
2.670968e+02	-1.955800e+01
2.682353e+02	-2.182283e+01
2.698292e+02	-2.434167e+01
2.716509e+02	-2.709333e+01
2.731309e+02	-2.912533e+01
2.754080e+02	-3.143250e+01
2.772296e+02	-3.321050e+01
2.789374e+02	-3.511550e+01
2.815560e+02	-3.742267e+01
2.841746e+02	-3.975100e+01
2.864516e+02	-4.157133e+01
2.882732e+02	-4.284133e+01
2.898672e+02	-4.402667e+01
2.905503e+02	-4.451350e+01
2.925996e+02	-4.591050e+01
2.929412e+02	-4.618567e+01
2.965844e+02	-4.851400e+01
2.933966e+02	-4.627033e+01
2.914611e+02	-4.480983e+01
2.892979e+02	-4.324350e+01
2.867932e+02	-4.121150e+01
2.841746e+02	-3.913717e+01
2.808729e+02	-3.615267e+01
2.796205e+02	-3.511550e+01
2.775712e+02	-3.291417e+01
2.764326e+02	-3.181350e+01
2.754080e+02	-3.071283e+01
2.743833e+02	-2.946400e+01
2.732448e+02	-2.810933e+01
2.719924e+02	-2.637367e+01
2.709677e+02	-2.512483e+01
2.703985e+02	-2.398183e+01
2.692600e+02	-2.214033e+01
2.686907e+02	-2.076450e+01
2.677799e+02	-1.938867e+01
2.670968e+02	-1.746250e+01
2.665275e+02	-1.640417e+01
2.662998e+02	-1.517650e+01
2.658444e+02	-1.369483e+01
2.656167e+02	-1.305983e+01
2.655028e+02	-1.198033e+01
2.652751e+02	-9.884833e+00
2.652751e+02	-8.826500e+00
2.651613e+02	-7.768167e+00
2.650474e+02	-6.688667e+00
2.651613e+02	-5.482167e+00
2.652751e+02	-3.979333e+00
2.653890e+02	-3.132667e+00
2.657306e+02	-1.883833e+00
2.661860e+02	-5.291667e-01
2.667552e+02	8.466667e-01
2.674383e+02	1.947333e+00
2.682353e+02	3.852333e+00
2.691461e+02	6.074833e+00
2.703985e+02	8.593667e+00
2.716509e+02	1.066800e+01
2.729032e+02	1.267883e+01
2.742694e+02	1.447800e+01
2.732448e+02	1.240367e+01
2.727894e+02	1.136650e+01
2.716509e+02	9.355667e+00
2.708539e+02	7.831667e+00
2.702846e+02	6.413500e+00
2.698292e+02	4.699000e+00
2.689184e+02	2.603500e+00
2.684630e+02	6.350000e-01
2.682353e+02	-4.021667e-01
2.681214e+02	-1.714500e+00
2.680076e+02	-3.513667e+00
2.680076e+02	-5.736167e+00
2.680076e+02	-7.577667e+00
2.683491e+02	-9.101667e+00
2.684630e+02	-1.109133e+01
2.690323e+02	-1.316567e+01
2.698292e+02	-1.572683e+01
2.706262e+02	-1.754717e+01
2.716509e+02	-1.962150e+01
2.732448e+02	-2.254250e+01
2.742694e+02	-2.415117e+01
2.754080e+02	-2.578100e+01
2.773435e+02	-2.819400e+01
2.793928e+02	-3.067050e+01
2.817837e+02	-3.312583e+01
2.839469e+02	-3.511550e+01
2.854269e+02	-3.657600e+01
2.872486e+02	-3.812117e+01
2.900949e+02	-4.032250e+01
2.927135e+02	-4.224867e+01
2.915750e+02	-4.116917e+01
2.894118e+02	-3.941233e+01
2.873624e+02	-3.757083e+01
2.863378e+02	-3.670300e+01
2.854269e+02	-3.577167e+01
2.844023e+02	-3.471333e+01
2.831499e+02	-3.359150e+01
2.821252e+02	-3.249083e+01
2.809867e+02	-3.126317e+01
2.799620e+02	-2.990850e+01
2.787097e+02	-2.836333e+01
2.772296e+02	-2.658533e+01
2.763188e+02	-2.531533e+01
2.752941e+02	-2.362200e+01
2.744972e+02	-2.207683e+01
2.734725e+02	-2.042583e+01
2.730171e+02	-1.938867e+01
2.722201e+02	-1.765300e+01
2.715370e+02	-1.595967e+01
2.710816e+02	-1.397000e+01
2.705123e+02	-1.234017e+01
2.702846e+02	-1.068917e+01
2.700569e+02	-8.995833e+00
2.700569e+02	-7.895167e+00
2.700569e+02	-7.048500e+00
2.700569e+02	-5.863167e+00
2.701708e+02	-4.466167e+00
2.701708e+02	-2.963333e+00
2.701708e+02	-1.714500e+00
2.702846e+02	-6.561667e-01
2.707400e+02	4.445000e-01
2.710816e+02	1.333500e+00
2.713093e+02	2.349500e+00
2.716509e+02	3.534833e+00
2.722201e+02	4.931833e+00
2.727894e+02	6.392333e+00
2.734725e+02	8.212667e+00
2.739279e+02	9.313333e+00
2.748387e+02	1.032933e+01
2.752941e+02	1.119717e+01
2.758634e+02	1.227667e+01
2.760911e+02	1.263650e+01
2.772296e+02	1.454150e+01
2.788235e+02	1.615017e+01
2.798482e+02	1.763183e+01
2.811006e+02	1.875367e+01
2.790512e+02	1.570567e+01
2.777989e+02	1.367367e+01
2.770019e+02	1.270000e+01
2.763188e+02	1.174750e+01
2.759772e+02	1.060450e+01
2.750664e+02	9.398000e+00
2.744972e+02	8.106833e+00
2.735863e+02	6.582833e+00
2.733586e+02	5.080000e+00
2.727894e+02	3.683000e+00
2.722201e+02	2.095500e+00
2.718786e+02	5.291667e-01
2.717647e+02	-1.185333e+00
2.714231e+02	-2.434167e+00
2.714231e+02	-4.953000e+00
2.714231e+02	-6.921500e+00
2.714231e+02	-8.233833e+00
2.714231e+02	-8.784167e+00
2.716509e+02	-9.588500e+00
2.717647e+02	-1.079500e+01
2.721063e+02	-1.236133e+01
2.725617e+02	-1.397000e+01
2.734725e+02	-1.665817e+01
2.744972e+02	-1.879600e+01
2.754080e+02	-2.070100e+01
2.766603e+02	-2.260600e+01
2.775712e+02	-2.413000e+01
2.787097e+02	-2.575983e+01
2.804175e+02	-2.813050e+01
2.823529e+02	-3.039533e+01
2.842884e+02	-3.204633e+01
2.829222e+02	-3.035300e+01
2.817837e+02	-2.876550e+01
2.804175e+02	-2.677583e+01
2.793928e+02	-2.531533e+01
2.787097e+02	-2.413000e+01
2.777989e+02	-2.256367e+01
2.766603e+02	-2.074333e+01
2.758634e+02	-1.881717e+01
2.750664e+02	-1.663700e+01
2.742694e+02	-1.428750e+01
2.739279e+02	-1.286933e+01
2.734725e+02	-1.136650e+01
2.733586e+02	-9.990667e+00
2.732448e+02	-8.043333e+00
2.732448e+02	-6.371167e+00
2.733586e+02	-5.376333e+00
2.734725e+02	-4.508500e+00
2.734725e+02	-3.577167e+00
2.735863e+02	-2.794000e+00
2.737002e+02	-1.989667e+00
2.738140e+02	-1.121833e+00
2.743833e+02	9.948333e-01
2.744972e+02	1.926167e+00
2.749526e+02	3.365500e+00
2.752941e+02	4.275667e+00
2.758634e+02	6.011333e+00
2.765465e+02	7.366000e+00
2.773435e+02	9.376833e+00
2.785958e+02	1.126067e+01
2.792789e+02	1.261533e+01
2.808729e+02	1.430867e+01
2.798482e+02	1.219200e+01
2.791651e+02	1.075267e+01
2.780266e+02	9.207500e+00
2.773435e+02	7.620000e+00
2.768880e+02	6.392333e+00
2.763188e+02	4.931833e+00
2.758634e+02	3.746500e+00
2.756357e+02	2.603500e+00
2.754080e+02	1.354667e+00
2.747249e+02	-7.408333e-01
2.746110e+02	-2.010833e+00
2.746110e+02	-3.259667e+00
2.746110e+02	-4.381500e+00
2.744972e+02	-6.138333e+00
2.746110e+02	-8.064500e+00
2.748387e+02	-9.821333e+00
2.751803e+02	-1.147233e+01
2.757495e+02	-1.352550e+01
2.758634e+02	-1.399117e+01
2.767742e+02	-1.663700e+01
2.777989e+02	-1.879600e+01
2.788235e+02	-2.078567e+01
2.798482e+02	-2.254250e+01
2.809867e+02	-2.410883e+01
2.820114e+02	-2.575983e+01
2.829222e+02	-2.671233e+01
2.825806e+02	-2.567517e+01
2.816698e+02	-2.436283e+01
2.809867e+02	-2.319867e+01
2.804175e+02	-2.224617e+01
2.796205e+02	-2.074333e+01
2.788235e+02	-1.917700e+01
2.782543e+02	-1.792817e+01
2.776850e+02	-1.665817e+01
2.772296e+02	-1.536700e+01
2.767742e+02	-1.397000e+01
2.765465e+02	-1.289050e+01
2.764326e+02	-1.191683e+01
2.762049e+02	-1.083733e+01
2.758634e+02	-9.440333e+00
2.759772e+02	-8.212667e+00
2.759772e+02	-5.291667e+00
2.759772e+02	-4.275667e+00
2.760911e+02	-3.683000e+00
2.760911e+02	-2.836333e+00
2.766603e+02	-3.810000e-01
2.768880e+02	-2.222500e+00
2.766603e+02	-3.577167e+00
2.766603e+02	-4.953000e+00
2.765465e+02	-6.582833e+00
2.766603e+02	-8.043333e+00
2.770019e+02	-1.016000e+01
2.771157e+02	-1.123950e+01
2.777989e+02	-1.335617e+01
2.777989e+02	-1.399117e+01
2.783681e+02	-1.538817e+01
2.789374e+02	-1.670050e+01
2.798482e+02	-1.879600e+01
2.807590e+02	-2.074333e+01
2.817837e+02	-2.258483e+01
2.826945e+02	-2.413000e+01
2.839469e+02	-2.573867e+01
2.850854e+02	-2.741083e+01
2.874763e+02	-3.001433e+01
2.896395e+02	-3.208867e+01
2.883871e+02	-3.052233e+01
2.871347e+02	-2.910417e+01
2.856546e+02	-2.711450e+01
2.845161e+02	-2.542117e+01
2.837192e+02	-2.400300e+01
2.825806e+02	-2.233083e+01
2.816698e+02	-2.065867e+01
2.811006e+02	-1.930400e+01
2.804175e+02	-1.792817e+01
2.798482e+02	-1.665817e+01
2.790512e+02	-1.409700e+01
2.783681e+02	-1.136650e+01
2.782543e+02	-1.077383e+01
2.782543e+02	-1.016000e+01
2.781404e+02	-9.292167e+00
2.780266e+02	-8.128000e+00
2.780266e+02	-7.027333e+00
2.780266e+02	-5.947833e+00
2.781404e+02	-4.677833e+00
2.782543e+02	-3.619500e+00
2.782543e+02	-2.455333e+00
2.785958e+02	-1.439333e+00
2.788235e+02	-3.810000e-01
2.788235e+02	4.445000e-01
2.791651e+02	1.524000e+00
2.795066e+02	2.328333e+00
2.798482e+02	4.085167e+00
2.804175e+02	5.630333e+00
2.807590e+02	6.159500e+00
2.815560e+02	7.789333e+00
2.820114e+02	8.995833e+00
2.828083e+02	9.969500e+00
2.831499e+02	1.085850e+01
2.842884e+02	1.225550e+01
2.834915e+02	1.030817e+01
2.825806e+02	8.530167e+00
2.815560e+02	6.180667e+00
2.811006e+02	4.783667e+00
2.803036e+02	2.328333e+00
2.797343e+02	-4.233333e-02
2.795066e+02	-1.185333e+00
2.791651e+02	-3.111500e+00
2.791651e+02	-4.910667e+00
2.792789e+02	-8.022167e+00
2.796205e+02	-9.419167e+00
2.797343e+02	-1.087967e+01
2.799620e+02	-1.282700e+01
2.804175e+02	-1.399117e+01
2.813283e+02	-1.640417e+01
2.824668e+02	-1.881717e+01
2.833776e+02	-2.076450e+01
2.842884e+02	-2.235200e+01
2.855408e+02	-2.415117e+01
2.865655e+02	-2.582333e+01
2.883871e+02	-2.779183e+01
2.872486e+02	-2.573867e+01
2.862239e+02	-2.413000e+01
2.850854e+02	-2.254250e+01
2.844023e+02	-2.125133e+01
2.840607e+02	-2.070100e+01
2.831499e+02	-1.879600e+01
2.826945e+02	-1.756833e+01
2.822391e+02	-1.661583e+01
2.816698e+02	-1.515533e+01
2.813283e+02	-1.397000e+01
2.809867e+02	-1.229783e+01
2.807590e+02	-1.081617e+01
2.805313e+02	-9.271000e+00
2.804175e+02	-8.022167e+00
2.803036e+02	-6.519333e+00
2.804175e+02	-5.672667e+00
2.804175e+02	-4.445000e+00
2.805313e+02	-3.788833e+00
2.805313e+02	-2.794000e+00
2.806452e+02	-1.587500e+00
2.809867e+02	2.963333e-01
2.815560e+02	2.476500e+00
2.821252e+02	4.318000e+00
2.825806e+02	5.185833e+00
2.834915e+02	6.963833e+00
2.837192e+02	6.159500e+00
2.829222e+02	4.085167e+00
2.823529e+02	2.307167e+00
2.820114e+02	1.100667e+00
2.815560e+02	-1.185333e+00
2.814421e+02	-2.243667e+00
2.814421e+02	-3.598333e+00
2.813283e+02	-4.953000e+00
2.814421e+02	-6.815667e+00
2.814421e+02	-8.106833e+00
2.815560e+02	-9.144000e+00
2.816698e+02	-1.085850e+01
2.821252e+02	-1.244600e+01
2.825806e+02	-1.397000e+01
2.832638e+02	-1.600200e+01
2.833776e+02	-1.667933e+01
2.841746e+02	-1.820333e+01
2.844023e+02	-1.881717e+01
2.854269e+02	-2.072217e+01
2.861101e+02	-2.180167e+01
2.865655e+02	-2.252133e+01
2.874763e+02	-2.413000e+01
2.886148e+02	-2.578100e+01
2.898672e+02	-2.753783e+01
2.911195e+02	-2.914650e+01
2.930550e+02	-3.109383e+01
2.953321e+02	-3.357033e+01
2.978368e+02	-3.600450e+01
2.998861e+02	-3.788833e+01
3.013662e+02	-3.886200e+01
3.010247e+02	-3.826933e+01
2.997723e+02	-3.708400e+01
2.990892e+02	-3.642783e+01
2.963567e+02	-3.390900e+01
2.944213e+02	-3.183467e+01
2.927135e+02	-2.997200e+01
2.906641e+02	-2.736850e+01
2.895256e+02	-2.573867e+01
2.885009e+02	-2.427817e+01
2.880455e+02	-2.347383e+01
2.872486e+02	-2.230967e+01
2.864516e+02	-2.074333e+01
2.854269e+02	-1.902883e+01
2.849715e+02	-1.746250e+01
2.844023e+02	-1.587500e+01
2.837192e+02	-1.399117e+01
2.833776e+02	-1.214967e+01
2.830361e+02	-1.085850e+01
2.829222e+02	-9.419167e+00
2.828083e+02	-8.064500e+00
2.826945e+02	-6.096000e+00
2.826945e+02	-4.953000e+00
2.826945e+02	-3.873500e+00
2.829222e+02	-2.688167e+00
2.830361e+02	-1.651000e+00
2.833776e+02	-2.328333e-01
2.837192e+02	1.206500e+00
2.841746e+02	2.751667e+00
2.845161e+02	3.852333e+00
2.850854e+02	5.376333e+00
2.857685e+02	6.688667e+00
2.865655e+02	8.530167e+00
2.871347e+02	9.884833e+00
2.879317e+02	1.090083e+01
2.886148e+02	1.159933e+01
2.878178e+02	9.779000e+00
2.869070e+02	7.683500e+00
2.864516e+02	6.455833e+00
2.858824e+02	5.037667e+00
2.854269e+02	3.471333e+00
2.850854e+02	2.264833e+00
2.846300e+02	3.810000e-01
2.844023e+02	-1.227667e+00
2.841746e+02	-2.561167e+00
2.841746e+02	-4.423833e+00
2.841746e+02	-4.953000e+00
2.844023e+02	-6.540500e+00
2.846300e+02	-8.022167e+00
2.850854e+02	-1.087967e+01
2.858824e+02	-1.401233e+01
2.866793e+02	-1.576917e+01
2.870209e+02	-1.665817e+01
2.881594e+02	-1.879600e+01
2.891841e+02	-2.072217e+01
2.900949e+02	-2.252133e+01
2.912334e+02	-2.413000e+01
2.923719e+02	-2.580217e+01
2.943074e+02	-2.844800e+01
2.970398e+02	-3.164417e+01
3.003416e+02	-3.486150e+01
3.033017e+02	-3.750733e+01
3.059203e+02	-3.964517e+01
3.100190e+02	-4.292600e+01
3.136622e+02	-4.550833e+01
3.175332e+02	-4.790017e+01
3.143454e+02	-4.561417e+01
3.125237e+02	-4.425950e+01
3.111575e+02	-4.330700e+01
3.096774e+02	-4.214283e+01
3.080835e+02	-4.078817e+01
3.062619e+02	-3.939117e+01
3.044402e+02	-3.780367e+01
3.019355e+02	-3.556000e+01
3.003416e+02	-3.386667e+01
2.984061e+02	-3.194050e+01
2.966983e+02	-2.988733e+01
2.948767e+02	-2.802467e+01
2.932827e+02	-2.575983e+01
2.921442e+02	-2.364317e+01
2.900949e+02	-2.019300e+01
2.891841e+02	-1.845733e+01
2.889564e+02	-1.773767e+01
2.883871e+02	-1.667933e+01
2.879317e+02	-1.513417e+01
2.875901e+02	-1.399117e+01
2.874763e+02	-1.312333e+01
2.867932e+02	-1.087967e+01
2.866793e+02	-8.678333e+00
2.866793e+02	-7.874000e+00
2.865655e+02	-5.884333e+00
2.865655e+02	-5.164667e+00
2.865655e+02	-3.915833e+00
2.866793e+02	-2.645833e+00
2.869070e+02	-1.058333e+00
2.871347e+02	-1.693333e-01
2.877040e+02	2.010833e+00
2.879317e+02	3.196167e+00
2.885009e+02	4.699000e+00
2.891841e+02	6.138333e+00
2.899810e+02	7.874000e+00
2.907780e+02	9.736667e+00
2.916888e+02	1.111250e+01
2.925996e+02	1.320800e+01
2.954459e+02	1.678517e+01
2.961290e+02	1.769533e+01
2.977230e+02	1.947333e+01
2.994307e+02	2.133600e+01
3.010247e+02	2.283883e+01
3.025047e+02	2.413000e+01
3.045541e+02	2.584450e+01
3.064896e+02	2.745317e+01
3.079696e+02	2.876550e+01
3.100190e+02	3.058583e+01
3.125237e+02	3.242733e+01
3.153700e+02	3.450167e+01
3.184440e+02	3.687233e+01
3.210626e+02	3.843867e+01
3.188994e+02	3.649133e+01
3.168501e+02	3.492500e+01
3.144592e+02	3.333750e+01
3.118406e+02	3.149600e+01
3.093359e+02	2.946400e+01
3.075142e+02	2.791883e+01
3.061480e+02	2.658533e+01
3.040987e+02	2.487083e+01
3.026186e+02	2.334683e+01
3.015939e+02	2.228850e+01
3.007970e+02	2.156883e+01
2.996584e+02	2.025650e+01
2.989753e+02	1.974850e+01
2.981784e+02	1.873250e+01
2.968121e+02	1.684867e+01
2.960152e+02	1.593850e+01
2.946490e+02	1.424517e+01
2.939658e+02	1.295400e+01
2.932827e+02	1.185333e+01
2.921442e+02	9.821333e+00
2.908918e+02	7.344833e+00
2.906641e+02	6.688667e+00
2.897533e+02	4.720167e+00
2.892979e+02	3.217333e+00
2.889564e+02	2.328333e+00
2.882732e+02	-6.350000e-02
2.880455e+02	-1.312333e+00
2.880455e+02	-2.899833e+00
2.880455e+02	-3.725333e+00
2.880455e+02	-4.783667e+00
2.880455e+02	-8.085667e+00
2.881594e+02	-8.953500e+00
2.882732e+02	-9.948333e+00
2.885009e+02	-1.187450e+01
2.890702e+02	-1.354667e+01
2.896395e+02	-1.488017e+01
2.904364e+02	-1.672167e+01
2.912334e+02	-1.883833e+01
2.922581e+02	-2.078567e+01
2.931689e+02	-2.256367e+01
2.941935e+02	-2.415117e+01
2.953321e+02	-2.578100e+01
2.966983e+02	-2.751667e+01
2.980645e+02	-2.914650e+01
2.987476e+02	-3.009900e+01
3.000000e+02	-3.155950e+01
3.015939e+02	-3.321050e+01
3.031879e+02	-3.473450e+01
3.045541e+02	-3.594100e+01
3.064896e+02	-3.769783e+01
3.080835e+02	-3.911600e+01
3.101328e+02	-4.089400e+01
3.122960e+02	-4.258733e+01
3.159393e+02	-4.512733e+01
3.176471e+02	-4.629150e+01
3.208349e+02	-4.832350e+01
3.185579e+02	-4.665133e+01
3.161670e+02	-4.489450e+01
3.140038e+02	-4.339167e+01
3.125237e+02	-4.218517e+01
3.103605e+02	-4.053417e+01
3.086528e+02	-3.898900e+01
3.071727e+02	-3.778250e+01
3.055787e+02	-3.630083e+01
3.039848e+02	-3.481917e+01
3.026186e+02	-3.340100e+01
3.011385e+02	-3.185583e+01
2.996584e+02	-3.007783e+01
2.980645e+02	-2.827867e+01
2.970398e+02	-2.700867e+01
2.959013e+02	-2.554817e+01
2.951044e+02	-2.410883e+01
2.945351e+02	-2.307167e+01
2.937381e+02	-2.142067e+01
2.924858e+02	-1.953683e+01
2.919165e+02	-1.839383e+01
2.914611e+02	-1.699683e+01
2.908918e+02	-1.538817e+01
2.906641e+02	-1.439333e+01
2.903226e+02	-1.365250e+01
2.898672e+02	-1.172633e+01
2.896395e+02	-9.906000e+00
2.894118e+02	-8.487833e+00
2.894118e+02	-7.514167e+00
2.894118e+02	-6.477000e+00
2.894118e+02	-4.953000e+00
2.894118e+02	-4.148667e+00
2.896395e+02	-3.196167e+00
2.898672e+02	-1.841500e+00
2.902087e+02	-1.905000e-01
2.905503e+02	1.439333e+00
2.908918e+02	2.815167e+00
2.913472e+02	4.064000e+00
2.918027e+02	5.312833e+00
2.922581e+02	6.159500e+00
2.928273e+02	7.598833e+00
2.938520e+02	9.736667e+00
2.946490e+02	1.113367e+01
2.953321e+02	1.202267e+01
2.960152e+02	1.291167e+01
2.968121e+02	1.422400e+01
2.973814e+02	1.517650e+01
2.986338e+02	1.684867e+01
2.997723e+02	1.824567e+01
3.006831e+02	1.909233e+01
3.014801e+02	2.012950e+01
3.020493e+02	2.072217e+01
3.030740e+02	2.186517e+01
3.044402e+02	2.307167e+01
3.059203e+02	2.413000e+01
3.047818e+02	2.266950e+01
3.036433e+02	2.161117e+01
3.025047e+02	2.019300e+01
3.005693e+02	1.803400e+01
2.997723e+02	1.682750e+01
2.986338e+02	1.568450e+01
2.969260e+02	1.320800e+01
2.959013e+02	1.155700e+01
2.952182e+02	1.011767e+01
2.938520e+02	7.641167e+00
2.932827e+02	6.138333e+00
2.924858e+02	4.360333e+00
2.920304e+02	2.963333e+00
2.919165e+02	2.286000e+00
2.915750e+02	5.926667e-01
2.910057e+02	-1.206500e+00
2.910057e+02	-2.921000e+00
2.910057e+02	-4.931833e+00
2.910057e+02	-6.604000e+00
2.911195e+02	-8.043333e+00
2.912334e+02	-9.969500e+00
2.916888e+02	-1.176867e+01
2.922581e+02	-1.356783e+01
2.928273e+02	-1.530350e+01
2.933966e+02	-1.718733e+01
2.941935e+02	-1.885950e+01
2.952182e+02	-2.067983e+01
2.955598e+02	-2.137833e+01
2.962429e+02	-2.256367e+01
2.972676e+02	-2.419350e+01
2.982922e+02	-2.571750e+01
2.998861e+02	-2.766483e+01
3.010247e+02	-2.912533e+01
3.028463e+02	-3.128433e+01
3.046679e+02	-3.312583e+01
3.063757e+02	-3.486150e+01
3.087666e+02	-3.699933e+01
3.105882e+02	-3.865033e+01
3.130930e+02	-4.070350e+01
3.154839e+02	-4.254500e+01
3.190133e+02	-4.491567e+01
3.165085e+02	-4.288367e+01
3.145731e+02	-4.129617e+01
3.126376e+02	-3.972983e+01
3.110436e+02	-3.848100e+01
3.096774e+02	-3.710517e+01
3.079696e+02	-3.558117e+01
3.062619e+02	-3.393017e+01
3.045541e+02	-3.217333e+01
3.029602e+02	-3.045883e+01
3.014801e+02	-2.863850e+01
3.000000e+02	-2.660650e+01
2.980645e+02	-2.364317e+01
2.968121e+02	-2.167467e+01
2.961290e+02	-2.053167e+01
2.953321e+02	-1.913467e+01
2.948767e+02	-1.792817e+01
2.945351e+02	-1.680633e+01
2.938520e+02	-1.566333e+01
2.935104e+02	-1.409700e+01
2.930550e+02	-1.212850e+01
2.924858e+02	-1.024467e+01
2.924858e+02	-9.017000e+00
2.923719e+02	-7.704667e+00
2.923719e+02	-6.752167e+00
2.924858e+02	-5.503333e+00
2.925996e+02	-3.788833e+00
2.927135e+02	-1.735667e+00
2.930550e+02	-2.540000e-01
2.935104e+02	1.587500e+00
2.938520e+02	3.026833e+00
2.944213e+02	4.296833e+00
2.949905e+02	5.672667e+00
2.955598e+02	7.112000e+00
2.961290e+02	8.636000e+00
2.969260e+02	9.948333e+00
2.976091e+02	1.102783e+01
2.986338e+02	1.289050e+01
2.998861e+02	1.473200e+01
3.006831e+02	1.593850e+01
3.023909e+02	1.773767e+01
3.031879e+02	1.816100e+01
3.023909e+02	1.680633e+01
3.010247e+02	1.496483e+01
2.998861e+02	1.322917e+01
2.989753e+02	1.193800e+01
2.980645e+02	1.020233e+01
2.972676e+02	8.995833e+00
2.966983e+02	7.810500e+00
2.961290e+02	6.159500e+00
2.954459e+02	4.762500e+00
2.946490e+02	2.370667e+00
2.941935e+02	1.481667e-01
2.939658e+02	-1.185333e+00
2.937381e+02	-2.497667e+00
2.937381e+02	-4.910667e+00
2.937381e+02	-6.053667e+00
2.937381e+02	-7.514167e+00
2.938520e+02	-8.064500e+00
2.939658e+02	-9.249833e+00
2.940797e+02	-1.081617e+01
2.944213e+02	-1.206500e+01
2.951044e+02	-1.405467e+01
2.959013e+02	-1.665817e+01
2.969260e+02	-1.879600e+01
2.979507e+02	-2.078567e+01
2.988615e+02	-2.256367e+01
3.007970e+02	-2.531533e+01
3.028463e+02	-2.804583e+01
3.048956e+02	-3.043767e+01
3.062619e+02	-3.168650e+01
3.048956e+02	-2.971800e+01
3.035294e+02	-2.804583e+01
3.023909e+02	-2.660650e+01
3.017078e+02	-2.573867e+01
3.007970e+02	-2.415117e+01
2.998861e+02	-2.256367e+01
2.989753e+02	-2.072217e+01
2.981784e+02	-1.881717e+01
2.972676e+02	-1.667933e+01
2.968121e+02	-1.517650e+01
2.965844e+02	-1.397000e+01
2.960152e+02	-1.159933e+01
2.959013e+02	-1.079500e+01
2.957875e+02	-9.398000e+00
2.955598e+02	-8.085667e+00
2.955598e+02	-6.688667e+00
2.955598e+02	-5.291667e+00
2.956736e+02	-4.487333e+00
2.956736e+02	-3.196167e+00
2.959013e+02	-2.307167e+00
2.961290e+02	-9.101667e-01
2.962429e+02	4.656667e-01
2.966983e+02	1.651000e+00
2.970398e+02	3.048000e+00
2.977230e+02	4.381500e+00
2.981784e+02	5.397500e+00
2.982922e+02	6.159500e+00
2.988615e+02	7.577667e+00
2.995446e+02	9.038167e+00
2.998861e+02	9.736667e+00
3.006831e+02	1.098550e+01
3.017078e+02	1.261533e+01
3.023909e+02	1.356783e+01
3.036433e+02	1.551517e+01
3.046679e+02	1.680633e+01
3.061480e+02	1.841500e+01
3.072865e+02	1.972733e+01
3.093359e+02	2.154767e+01
3.081973e+02	1.974850e+01
3.069450e+02	1.841500e+01
3.056926e+02	1.682750e+01
3.044402e+02	1.538817e+01
3.035294e+02	1.426633e+01
3.029602e+02	1.318683e+01
3.022770e+02	1.234017e+01
3.014801e+02	1.092200e+01
3.009108e+02	9.757833e+00
3.003416e+02	8.530167e+00
2.997723e+02	7.090833e+00
2.993169e+02	6.159500e+00
2.989753e+02	5.545667e+00
2.985199e+02	4.148667e+00
2.980645e+02	2.688167e+00
2.976091e+02	1.312333e+00
2.970398e+02	-1.164167e+00
2.969260e+02	-2.730500e+00
2.969260e+02	-4.614333e+00
2.970398e+02	-6.244167e+00
2.970398e+02	-8.043333e+00
2.972676e+02	-9.842500e+00
2.974953e+02	-1.155700e+01
2.982922e+02	-1.397000e+01
2.988615e+02	-1.619250e+01
2.996584e+02	-1.773767e+01
3.000000e+02	-1.881717e+01
3.010247e+02	-2.080683e+01
3.020493e+02	-2.260600e+01
3.031879e+02	-2.419350e+01
3.051233e+02	-2.700867e+01
3.069450e+02	-2.935817e+01
3.086528e+02	-3.128433e+01
3.105882e+02	-3.327400e+01
3.112713e+02	-3.393017e+01
3.124099e+02	-3.517900e+01
3.143454e+02	-3.691467e+01
3.162808e+02	-3.867150e+01
3.186717e+02	-4.053417e+01
3.218596e+02	-4.298950e+01
3.252751e+02	-4.546600e+01
3.268691e+02	-4.639733e+01
3.258444e+02	-4.550833e+01
3.245920e+02	-4.442883e+01
3.223150e+02	-4.290483e+01
3.202657e+02	-4.123267e+01
3.190133e+02	-4.021667e+01
3.176471e+02	-3.909483e+01
3.162808e+02	-3.795183e+01
3.148008e+02	-3.668183e+01
3.134345e+02	-3.536950e+01
3.120683e+02	-3.407833e+01
3.108159e+02	-3.261783e+01
3.094497e+02	-3.109383e+01
3.072865e+02	-2.868083e+01
3.068311e+02	-2.806700e+01
3.054649e+02	-2.631017e+01
3.047818e+02	-2.548467e+01
3.039848e+02	-2.410883e+01
3.037571e+02	-2.364317e+01
3.020493e+02	-2.076450e+01
3.011385e+02	-1.881717e+01
3.007970e+02	-1.809750e+01
3.003416e+02	-1.706033e+01
3.000000e+02	-1.617133e+01
3.000000e+02	-1.570567e+01
2.987476e+02	-1.143000e+01
2.984061e+02	-9.779000e+00
2.982922e+02	-8.064500e+00
2.982922e+02	-7.641167e+00
2.982922e+02	-4.889500e+00
2.982922e+02	-4.318000e+00
2.984061e+02	-3.344333e+00
2.985199e+02	-2.561167e+00
2.986338e+02	-1.947333e+00
2.987476e+02	-1.185333e+00
2.989753e+02	-1.481667e-01
2.990892e+02	1.439333e+00
2.993169e+02	2.222500e+00
2.998861e+02	4.106333e+00
3.011385e+02	5.651500e+00
3.009108e+02	4.127500e+00
3.004554e+02	2.603500e+00
3.000000e+02	9.313333e-01
2.997723e+02	-3.386667e-01
2.996584e+02	-1.862667e+00
2.994307e+02	-3.852333e+00
2.994307e+02	-4.931833e+00
2.996584e+02	-6.921500e+00
2.996584e+02	-8.085667e+00
2.998861e+02	-1.005417e+01
3.002277e+02	-1.092200e+01
3.005693e+02	-1.060450e+01
3.005693e+02	-8.995833e+00
3.004554e+02	-6.498167e+00
3.006831e+02	-4.953000e+00
3.007970e+02	-3.090333e+00
3.010247e+02	-1.185333e+00
3.017078e+02	9.525000e-01
3.020493e+02	2.328333e+00
3.031879e+02	5.207000e+00
3.034156e+02	6.138333e+00
3.043264e+02	7.895167e+00
3.050095e+02	9.334500e+00
3.062619e+02	1.085850e+01
3.060342e+02	9.715500e+00
3.050095e+02	7.577667e+00
3.043264e+02	6.138333e+00
3.038710e+02	4.826000e+00
3.034156e+02	3.471333e+00
3.030740e+02	2.349500e+00
3.023909e+02	3.810000e-01
3.023909e+02	-1.185333e+00
3.021632e+02	-3.090333e+00
3.020493e+02	-4.953000e+00
3.020493e+02	-6.731000e+00
3.021632e+02	-8.128000e+00
3.025047e+02	-9.884833e+00
3.028463e+02	-1.181100e+01
3.035294e+02	-1.403350e+01
3.042125e+02	-1.640417e+01
3.051233e+02	-1.841500e+01
3.062619e+02	-2.076450e+01
3.074004e+02	-2.260600e+01
3.084250e+02	-2.417233e+01
3.094497e+02	-2.575983e+01
3.107021e+02	-2.747433e+01
3.127514e+02	-2.976033e+01
3.149146e+02	-3.213100e+01
3.170778e+02	-3.452283e+01
3.196964e+02	-3.687233e+01
3.219734e+02	-3.845983e+01
3.203795e+02	-3.702050e+01
3.187856e+02	-3.560233e+01
3.174194e+02	-3.416300e+01
3.159393e+02	-3.251200e+01
3.143454e+02	-3.054350e+01
3.128653e+02	-2.908300e+01
3.120683e+02	-2.810933e+01
3.110436e+02	-2.669117e+01
3.099051e+02	-2.514600e+01
3.087666e+02	-2.357967e+01
3.083112e+02	-2.256367e+01
3.072865e+02	-2.078567e+01
3.067173e+02	-1.934633e+01
3.060342e+02	-1.809750e+01
3.054649e+02	-1.665817e+01
3.047818e+02	-1.471083e+01
3.044402e+02	-1.369483e+01
3.042125e+02	-1.221317e+01
3.038710e+02	-1.045633e+01
3.035294e+02	-8.805333e+00
3.035294e+02	-7.069667e+00
3.035294e+02	-6.011333e+00
3.037571e+02	-3.958167e+00
3.043264e+02	9.101667e-01
3.046679e+02	2.645833e+00
3.048956e+02	3.259667e+00
3.048956e+02	4.000500e+00
3.054649e+02	4.572000e+00
3.060342e+02	6.731000e+00
3.064896e+02	7.683500e+00
3.072865e+02	9.038167e+00
3.097913e+02	1.225550e+01
3.086528e+02	9.779000e+00
3.079696e+02	8.339667e+00
3.069450e+02	6.117167e+00
3.063757e+02	4.529667e+00
3.059203e+02	3.683000e+00
3.055787e+02	2.286000e+00
3.053510e+02	1.058333e+00
3.051233e+02	-2.540000e-01
3.050095e+02	-1.248833e+00
3.046679e+02	-2.942167e+00
3.047818e+02	-4.931833e+00
3.048956e+02	-6.434667e+00
3.048956e+02	-8.064500e+00
3.050095e+02	-9.165167e+00
3.052372e+02	-1.024467e+01
3.054649e+02	-1.151467e+01
3.058065e+02	-1.354667e+01
3.064896e+02	-1.496483e+01
3.070588e+02	-1.663700e+01
3.076281e+02	-1.809750e+01
3.086528e+02	-1.991783e+01
3.095636e+02	-2.161117e+01
3.108159e+02	-2.377017e+01
3.122960e+02	-2.571750e+01
3.149146e+02	-2.912533e+01
3.170778e+02	-3.136900e+01
3.193548e+02	-3.386667e+01
3.223150e+02	-3.649133e+01
3.251613e+02	-3.896783e+01
3.286907e+02	-4.182533e+01
3.330171e+02	-4.502150e+01
3.373435e+02	-4.779433e+01
3.349526e+02	-4.591050e+01
3.332448e+02	-4.466167e+01
3.310816e+02	-4.301067e+01
3.292600e+02	-4.157133e+01
3.268691e+02	-3.958167e+01
3.257306e+02	-3.867150e+01
3.241366e+02	-3.716867e+01
3.215180e+02	-3.484033e+01
3.192410e+02	-3.242733e+01
3.168501e+02	-2.969683e+01
3.157116e+02	-2.829983e+01
3.146869e+02	-2.681817e+01
3.135484e+02	-2.525183e+01
3.125237e+02	-2.355850e+01
3.118406e+02	-2.256367e+01
3.107021e+02	-2.078567e+01
3.100190e+02	-1.936750e+01
3.096774e+02	-1.837267e+01
3.088805e+02	-1.665817e+01
3.083112e+02	-1.485900e+01
3.079696e+02	-1.350433e+01
3.074004e+02	-1.132417e+01
3.071727e+02	-1.064683e+01
3.071727e+02	-9.249833e+00
3.071727e+02	-8.043333e+00
3.071727e+02	-6.053667e+00
3.071727e+02	-3.704167e+00
3.072865e+02	-1.651000e+00
3.075142e+02	-1.058333e-01
3.078558e+02	1.566333e+00
3.085389e+02	2.963333e+00
3.091082e+02	4.339167e+00
3.096774e+02	6.180667e+00
3.103605e+02	7.662333e+00
3.112713e+02	9.038167e+00
3.118406e+02	1.030817e+01
3.128653e+02	1.198033e+01
3.137761e+02	1.356783e+01
3.151423e+02	1.521883e+01
3.163947e+02	1.680633e+01
3.176471e+02	1.849967e+01
3.183302e+02	1.919817e+01
3.192410e+02	2.006600e+01
3.200380e+02	2.093383e+01
3.222011e+02	2.311400e+01
3.233397e+02	2.417233e+01
3.245920e+02	2.523067e+01
3.256167e+02	2.628900e+01
3.273245e+02	2.760133e+01
3.292600e+02	2.893483e+01
3.270968e+02	2.681817e+01
3.256167e+02	2.552700e+01
3.247059e+02	2.457450e+01
3.236812e+02	2.364317e+01
3.224288e+02	2.250017e+01
3.208349e+02	2.082800e+01
3.194687e+02	1.921933e+01
3.185579e+02	1.813983e+01
3.171917e+02	1.651000e+01
3.163947e+02	1.538817e+01
3.150285e+02	1.356783e+01
3.149146e+02	1.316567e+01
3.136622e+02	1.136650e+01
3.127514e+02	9.715500e+00
3.118406e+02	7.768167e+00
3.111575e+02	6.159500e+00
3.104744e+02	4.868333e+00
3.101328e+02	3.450167e+00
3.096774e+02	2.286000e+00
3.092220e+02	-5.926667e-01
3.089943e+02	-1.227667e+00
3.086528e+02	-3.386667e+00
3.088805e+02	-4.931833e+00
3.089943e+02	-7.514167e+00
3.088805e+02	-9.334500e+00
3.094497e+02	-1.132417e+01
3.097913e+02	-1.301750e+01
3.101328e+02	-1.401233e+01
3.109298e+02	-1.636183e+01
3.111575e+02	-1.665817e+01
3.118406e+02	-1.883833e+01
3.129791e+02	-2.076450e+01
3.140038e+02	-2.256367e+01
3.151423e+02	-2.417233e+01
3.161670e+02	-2.571750e+01
3.181025e+02	-2.823633e+01
3.202657e+02	-3.086100e+01
3.231120e+02	-3.386667e+01
3.266414e+02	-3.699933e+01
3.305123e+02	-4.036483e+01
3.333586e+02	-4.239683e+01
3.307400e+02	-4.008967e+01
3.285769e+02	-3.835400e+01
3.266414e+02	-3.651250e+01
3.245920e+02	-3.458633e+01
3.225427e+02	-3.238500e+01
3.215180e+02	-3.117850e+01
3.206072e+02	-3.016250e+01
3.191271e+02	-2.836333e+01
3.177609e+02	-2.667000e+01
3.171917e+02	-2.571750e+01
3.162808e+02	-2.417233e+01
3.150285e+02	-2.203450e+01
3.142315e+02	-2.076450e+01
3.134345e+02	-1.881717e+01
3.126376e+02	-1.697567e+01
3.121822e+02	-1.496483e+01
3.117268e+02	-1.282700e+01
3.114991e+02	-1.132417e+01
3.111575e+02	-9.546167e+00
3.111575e+02	-8.064500e+00
3.111575e+02	-5.693833e+00
3.112713e+02	-3.831167e+00
3.114991e+02	-2.053167e+00
3.119545e+02	-1.629833e+00
3.121822e+02	-4.423833e+00
3.122960e+02	-6.519333e+00
3.124099e+02	-8.191500e+00
3.126376e+02	-1.062567e+01
3.132068e+02	-1.248833e+01
3.135484e+02	-1.435100e+01
3.146869e+02	-1.699683e+01
3.152562e+02	-1.881717e+01
3.165085e+02	-2.082800e+01
3.175332e+02	-2.256367e+01
3.185579e+02	-2.366433e+01
3.176471e+02	-2.152650e+01
3.167362e+02	-1.970617e+01
3.159393e+02	-1.843617e+01
3.151423e+02	-1.617133e+01
3.144592e+02	-1.399117e+01
3.137761e+02	-1.136650e+01
3.136622e+02	-1.056217e+01
3.135484e+02	-9.017000e+00
3.133207e+02	-8.043333e+00
3.134345e+02	-6.942667e+00
3.134345e+02	-5.630333e+00
3.134345e+02	-4.339167e+00
3.134345e+02	-3.450167e+00
3.135484e+02	-2.180167e+00
3.138899e+02	-1.206500e+00
3.140038e+02	3.810000e-01
3.143454e+02	1.587500e+00
3.149146e+02	3.026833e+00
3.152562e+02	4.296833e+00
3.157116e+02	5.609167e+00
3.161670e+02	6.794500e+00
3.171917e+02	8.614833e+00
3.177609e+02	9.715500e+00
3.185579e+02	1.045633e+01
3.184440e+02	9.694333e+00
3.177609e+02	8.170333e+00
3.167362e+02	6.096000e+00
3.162808e+02	4.381500e+00
3.157116e+02	2.688167e+00
3.151423e+02	1.185333e+00
3.151423e+02	4.445000e-01
3.148008e+02	-1.227667e+00
3.144592e+02	-3.344333e+00
3.144592e+02	-4.931833e+00
3.144592e+02	-6.561667e+00
3.146869e+02	-8.064500e+00
3.148008e+02	-1.041400e+01
3.154839e+02	-1.238250e+01
3.158254e+02	-1.401233e+01
3.162808e+02	-1.439333e+01
3.163947e+02	-1.367367e+01
3.159393e+02	-1.147233e+01
3.153700e+02	-9.398000e+00
3.157116e+02	-7.683500e+00
3.165085e+02	-1.062567e+01
3.169639e+02	-1.303867e+01
3.177609e+02	-1.498600e+01
3.183302e+02	-1.555750e+01
3.181025e+02	-1.397000e+01
3.176471e+02	-1.225550e+01
3.175332e+02	-1.049867e+01
3.173055e+02	-8.636000e+00
3.171917e+02	-7.027333e+00
3.173055e+02	-4.953000e+00
3.175332e+02	-3.132667e+00
3.177609e+02	-1.248833e+00
3.183302e+02	2.540000e-01
3.188994e+02	2.264833e+00
3.195825e+02	4.106333e+00
3.208349e+02	5.842000e+00
3.206072e+02	4.148667e+00
3.201518e+02	2.243667e+00
3.196964e+02	6.561667e-01
3.194687e+02	-1.227667e+00
3.192410e+02	-3.386667e+00
3.192410e+02	-4.995333e+00
3.192410e+02	-6.985000e+00
3.194687e+02	-8.085667e+00
3.198102e+02	-1.073150e+01
3.202657e+02	-1.242483e+01
3.207211e+02	-1.401233e+01
3.216319e+02	-1.667933e+01
3.226565e+02	-1.883833e+01
3.237951e+02	-2.078567e+01
3.247059e+02	-2.260600e+01
3.257306e+02	-2.417233e+01
3.267552e+02	-2.573867e+01
3.289184e+02	-2.853267e+01
3.303985e+02	-3.031067e+01
3.314231e+02	-3.130550e+01
3.325617e+02	-3.253317e+01
3.339279e+02	-3.409950e+01
3.359772e+02	-3.598333e+01
3.382543e+02	-3.788833e+01
3.404175e+02	-3.947583e+01
3.387097e+02	-3.776133e+01
3.374573e+02	-3.668183e+01
3.359772e+02	-3.532717e+01
3.349526e+02	-3.422650e+01
3.337002e+02	-3.302000e+01
3.325617e+02	-3.170767e+01
3.311954e+02	-3.022600e+01
3.298292e+02	-2.865967e+01
3.286907e+02	-2.719917e+01
3.276660e+02	-2.571750e+01
3.266414e+02	-2.415117e+01
3.256167e+02	-2.241550e+01
3.247059e+02	-2.091267e+01
3.244782e+02	-2.000250e+01
3.236812e+02	-1.871133e+01
3.228843e+02	-1.701800e+01
3.220873e+02	-1.517650e+01
3.217457e+02	-1.341967e+01
3.212903e+02	-1.164167e+01
3.209488e+02	-9.969500e+00
3.206072e+02	-8.064500e+00
3.206072e+02	-6.477000e+00
3.207211e+02	-4.953000e+00
3.208349e+02	-3.238500e+00
3.209488e+02	-1.460500e+00
3.214042e+02	-2.116667e-02
3.215180e+02	1.291167e+00
3.217457e+02	1.947333e+00
3.219734e+02	2.963333e+00
3.222011e+02	3.873500e+00
3.226565e+02	5.228167e+00
3.233397e+02	6.794500e+00
3.242505e+02	8.149167e+00
3.251613e+02	9.334500e+00
3.245920e+02	7.493000e+00
3.239089e+02	6.096000e+00
3.233397e+02	4.064000e+00
3.228843e+02	2.476500e+00
3.225427e+02	1.397000e+00
3.223150e+02	2.963333e-01
3.218596e+02	-1.248833e+00
3.215180e+02	-2.815167e+00
3.216319e+02	-4.974167e+00
3.216319e+02	-7.133167e+00
3.218596e+02	-8.614833e+00
3.222011e+02	-1.032933e+01
3.225427e+02	-1.212850e+01
3.227704e+02	-1.331383e+01
3.235674e+02	-1.545167e+01
3.237951e+02	-1.667933e+01
3.250474e+02	-1.883833e+01
3.259583e+02	-2.082800e+01
3.270968e+02	-2.260600e+01
3.282353e+02	-2.442633e+01
3.290323e+02	-2.575983e+01
3.305123e+02	-2.762250e+01
3.317647e+02	-2.950633e+01
3.330171e+02	-3.092450e+01
3.340417e+02	-3.200400e+01
3.359772e+02	-3.380317e+01
3.372296e+02	-3.517900e+01
3.389374e+02	-3.653367e+01
3.404175e+02	-3.786717e+01
3.421252e+02	-3.911600e+01
3.445161e+02	-4.135967e+01
3.470209e+02	-4.328583e+01
3.492979e+02	-4.497917e+01
3.520304e+02	-4.679950e+01
3.545351e+02	-4.826000e+01
3.524858e+02	-4.677833e+01
3.502087e+02	-4.514850e+01
3.489564e+02	-4.417483e+01
3.456546e+02	-4.163483e+01
3.439469e+02	-4.013200e+01
3.408729e+02	-3.767667e+01
3.392789e+02	-3.627967e+01
3.379127e+02	-3.490383e+01
3.370019e+02	-3.409950e+01
3.356357e+02	-3.278717e+01
3.342694e+02	-3.124200e+01
3.333586e+02	-3.026833e+01
3.327894e+02	-2.965450e+01
3.319924e+02	-2.863850e+01
3.308539e+02	-2.709333e+01
3.298292e+02	-2.575983e+01
3.286907e+02	-2.417233e+01
3.278937e+02	-2.286000e+01
3.274383e+02	-2.197100e+01
3.269829e+02	-2.082800e+01
3.262998e+02	-1.940983e+01
3.256167e+02	-1.833033e+01
3.251613e+02	-1.739900e+01
3.249336e+02	-1.636183e+01
3.243643e+02	-1.492250e+01
3.240228e+02	-1.371600e+01
3.235674e+02	-1.151467e+01
3.232258e+02	-9.842500e+00
3.229981e+02	-8.085667e+00
3.228843e+02	-6.879167e+00
3.228843e+02	-5.842000e+00
3.229981e+02	-4.381500e+00
3.229981e+02	-3.323167e+00
3.231120e+02	-2.074333e+00
3.232258e+02	-9.101667e-01
3.237951e+02	6.985000e-01
3.241366e+02	2.243667e+00
3.247059e+02	3.153833e+00
3.248197e+02	2.264833e+00
3.243643e+02	-8.678333e-01
3.239089e+02	-2.836333e+00
3.237951e+02	-4.466167e+00
3.239089e+02	-5.503333e+00
3.240228e+02	-6.519333e+00
3.240228e+02	-7.852833e+00
3.242505e+02	-9.186333e+00
3.247059e+02	-1.138767e+01
3.247059e+02	-1.250950e+01
3.251613e+02	-1.371600e+01
3.256167e+02	-1.494367e+01
3.262998e+02	-1.674283e+01
3.272106e+02	-1.881717e+01
3.282353e+02	-2.082800e+01
3.292600e+02	-2.230967e+01
3.302846e+02	-2.419350e+01
3.315370e+02	-2.578100e+01
3.333586e+02	-2.821517e+01
3.347249e+02	-2.982383e+01
3.359772e+02	-3.141133e+01
3.379127e+02	-3.340100e+01
3.396205e+02	-3.490383e+01
3.413283e+02	-3.647017e+01
3.432638e+02	-3.835400e+01
3.461101e+02	-4.083050e+01
3.491841e+02	-4.307417e+01
3.508918e+02	-4.409017e+01
3.498672e+02	-4.305300e+01
3.485009e+02	-4.188883e+01
3.465655e+02	-4.028017e+01
3.447438e+02	-3.879850e+01
3.432638e+02	-3.759200e+01
3.417837e+02	-3.625850e+01
3.403036e+02	-3.494617e+01
3.389374e+02	-3.350683e+01
3.375712e+02	-3.213100e+01
3.362049e+02	-3.060700e+01
3.350664e+02	-2.935817e+01
3.338140e+02	-2.770717e+01
3.323340e+02	-2.573867e+01
3.311954e+02	-2.419350e+01
3.306262e+02	-2.302933e+01
3.299431e+02	-2.190750e+01
3.291461e+02	-2.051050e+01
3.285769e+02	-1.921933e+01
3.278937e+02	-1.775883e+01
3.274383e+02	-1.636183e+01
3.269829e+02	-1.530350e+01
3.262998e+02	-1.295400e+01
3.256167e+02	-5.842000e+00
3.255028e+02	-5.037667e+00
3.256167e+02	-3.175000e+00
3.258444e+02	-2.243667e+00
3.260721e+02	-1.481667e-01
3.267552e+02	2.180167e+00
3.278937e+02	5.164667e+00
3.286907e+02	7.662333e+00
3.292600e+02	8.678333e+00
3.300569e+02	1.009650e+01
3.303985e+02	1.079500e+01
3.313093e+02	1.219200e+01
3.318786e+02	1.308100e+01
3.333586e+02	1.498600e+01
3.354080e+02	1.758950e+01
3.371157e+02	1.968500e+01
3.390512e+02	2.165350e+01
3.406452e+02	2.319867e+01
3.415560e+02	2.404533e+01
3.430361e+02	2.535767e+01
3.450854e+02	2.707217e+01
3.454269e+02	2.755900e+01
3.473624e+02	2.944283e+01
3.500949e+02	3.139017e+01
3.525996e+02	3.323167e+01
3.551044e+02	3.515783e+01
3.574953e+02	3.687233e+01
3.604554e+02	3.888317e+01
3.625047e+02	3.994150e+01
3.613662e+02	3.884083e+01
3.596584e+02	3.757083e+01
3.578368e+02	3.611033e+01
3.537381e+02	3.318933e+01
3.508918e+02	3.115733e+01
3.483871e+02	2.914650e+01
3.465655e+02	2.770717e+01
3.450854e+02	2.628900e+01
3.426945e+02	2.427817e+01
3.418975e+02	2.341033e+01
3.409867e+02	2.243667e+01
3.400759e+02	2.146300e+01
3.392789e+02	2.051050e+01
3.381404e+02	1.926167e+01
3.374573e+02	1.843617e+01
3.365465e+02	1.739900e+01
3.356357e+02	1.612900e+01
3.347249e+02	1.502833e+01
3.338140e+02	1.380067e+01
3.330171e+02	1.253067e+01
3.323340e+02	1.130300e+01
3.311954e+02	9.038167e+00
3.299431e+02	6.117167e+00
3.293738e+02	5.101167e+00
3.286907e+02	2.370667e+00
3.283491e+02	1.587500e+00
3.278937e+02	-4.868333e-01
3.276660e+02	-1.291167e+00
3.274383e+02	-3.026833e+00
3.273245e+02	-4.910667e+00
3.275522e+02	-7.006167e+00
3.280076e+02	-1.007533e+01
3.282353e+02	-1.176867e+01
3.285769e+02	-1.308100e+01
3.291461e+02	-1.494367e+01
3.297154e+02	-1.676400e+01
3.307400e+02	-1.866900e+01
3.311954e+02	-1.972733e+01
3.314231e+02	-2.044700e+01
3.325617e+02	-2.266950e+01
3.337002e+02	-2.457450e+01
3.351803e+02	-2.692400e+01
3.367742e+02	-2.861733e+01
3.381404e+02	-3.033183e+01
3.406452e+02	-3.289300e+01
3.422391e+02	-3.458633e+01
3.444023e+02	-3.668183e+01
3.464516e+02	-3.837517e+01
3.486148e+02	-4.017433e+01
3.516888e+02	-4.260850e+01
3.538520e+02	-4.411133e+01
3.573814e+02	-4.648200e+01
3.605693e+02	-4.845050e+01
3.566983e+02	-4.572000e+01
3.549905e+02	-4.434417e+01
3.513472e+02	-4.186767e+01
3.495256e+02	-4.032250e+01
3.478178e+02	-3.888317e+01
3.461101e+02	-3.735917e+01
3.445161e+02	-3.585633e+01
3.436053e+02	-3.484033e+01
3.420114e+02	-3.350683e+01
3.408729e+02	-3.208867e+01
3.395066e+02	-3.048000e+01
3.385958e+02	-2.942167e+01
3.372296e+02	-2.791883e+01
3.358634e+02	-2.626783e+01
3.350664e+02	-2.512483e+01
3.342694e+02	-2.338917e+01
3.332448e+02	-2.171700e+01
3.322201e+02	-2.019300e+01
3.317647e+02	-1.936750e+01
3.314231e+02	-1.843617e+01
3.308539e+02	-1.742017e+01
3.303985e+02	-1.598083e+01
3.298292e+02	-1.441450e+01
3.296015e+02	-1.297517e+01
3.291461e+02	-1.189567e+01
3.291461e+02	-1.140883e+01
3.288046e+02	-9.525000e+00
3.286907e+02	-8.995833e+00
3.285769e+02	-6.688667e+00
3.285769e+02	-5.461000e+00
3.286907e+02	-4.762500e+00
3.286907e+02	-3.831167e+00
3.289184e+02	-1.968500e+00
3.292600e+02	-4.656667e-01
3.293738e+02	3.386667e-01
3.297154e+02	1.587500e+00
3.301708e+02	3.090333e+00
3.309677e+02	4.826000e+00
3.316509e+02	6.688667e+00
3.324478e+02	8.530167e+00
3.334725e+02	1.041400e+01
3.346110e+02	1.234017e+01
3.356357e+02	1.403350e+01
3.374573e+02	1.653117e+01
3.392789e+02	1.803400e+01
3.381404e+02	1.619250e+01
3.370019e+02	1.481667e+01
3.359772e+02	1.316567e+01
3.351803e+02	1.172633e+01
3.344972e+02	1.045633e+01
3.339279e+02	9.546167e+00
3.331309e+02	8.170333e+00
3.324478e+02	6.328833e+00
3.317647e+02	4.296833e+00
3.315370e+02	3.344333e+00
3.310816e+02	2.222500e+00
3.307400e+02	8.043333e-01
3.303985e+02	-1.079500e+00
3.302846e+02	-2.116667e+00
3.301708e+02	-3.344333e+00
3.301708e+02	-4.762500e+00
3.302846e+02	-7.090833e+00
3.305123e+02	-8.614833e+00
3.307400e+02	-1.090083e+01
3.313093e+02	-1.278467e+01
3.321063e+02	-1.513417e+01
3.324478e+02	-1.667933e+01
3.337002e+02	-1.911350e+01
3.351803e+02	-2.194983e+01
3.355218e+02	-2.254250e+01
3.366603e+02	-2.421467e+01
3.376850e+02	-2.578100e+01
3.392789e+02	-2.819400e+01
3.411006e+02	-3.031067e+01
3.431499e+02	-3.238500e+01
3.440607e+02	-3.365500e+01
3.463378e+02	-3.564467e+01
3.491841e+02	-3.837517e+01
3.515750e+02	-4.023783e+01
3.548767e+02	-4.294717e+01
3.585199e+02	-4.544483e+01
3.612524e+02	-4.730750e+01
3.630740e+02	-4.830233e+01
3.618216e+02	-4.718050e+01
3.593169e+02	-4.559300e+01
3.561290e+02	-4.326467e+01
3.521442e+02	-3.998383e+01
3.499810e+02	-3.824817e+01
3.469070e+02	-3.536950e+01
3.446300e+02	-3.293533e+01
3.417837e+02	-2.992967e+01
3.398482e+02	-2.753783e+01
3.388235e+02	-2.607733e+01
3.379127e+02	-2.470150e+01
3.368880e+02	-2.288117e+01
3.357495e+02	-2.084917e+01
3.348387e+02	-1.919817e+01
3.339279e+02	-1.686983e+01
3.332448e+02	-1.437217e+01
3.324478e+02	-1.159933e+01
3.322201e+02	-9.376833e+00
3.318786e+02	-8.085667e+00
3.319924e+02	-6.286500e+00
3.321063e+02	-4.931833e+00
3.323340e+02	-2.476500e+00
3.326755e+02	-1.227667e+00
3.327894e+02	-4.233333e-02
3.332448e+02	1.418167e+00
3.337002e+02	2.878667e+00
3.342694e+02	4.296833e+00
3.348387e+02	6.074833e+00
3.357495e+02	7.852833e+00
3.367742e+02	9.694333e+00
3.381404e+02	1.212850e+01
3.388235e+02	1.310217e+01
3.400759e+02	1.479550e+01
3.409867e+02	1.612900e+01
3.420114e+02	1.750483e+01
3.423529e+02	1.797050e+01
3.441746e+02	1.945217e+01
3.434915e+02	1.807633e+01
3.422391e+02	1.672167e+01
3.407590e+02	1.464733e+01
3.399620e+02	1.325033e+01
3.388235e+02	1.162050e+01
3.377989e+02	9.736667e+00
3.368880e+02	8.233833e+00
3.359772e+02	6.053667e+00
3.348387e+02	3.217333e+00
3.347249e+02	2.243667e+00
3.341556e+02	-2.751667e-01
3.339279e+02	-1.291167e+00
3.338140e+02	-4.804833e+00
3.339279e+02	-7.344833e+00
3.339279e+02	-8.614833e+00
3.341556e+02	-9.842500e+00
3.344972e+02	-1.162050e+01
3.350664e+02	-1.403350e+01
3.360911e+02	-1.665817e+01
3.371157e+02	-1.885950e+01
3.377989e+02	-2.082800e+01
3.388235e+02	-2.260600e+01
3.399620e+02	-2.415117e+01
3.409867e+02	-2.573867e+01
3.424668e+02	-2.789767e+01
3.448577e+02	-3.069167e+01
3.469070e+02	-3.270250e+01
3.492979e+02	-3.513667e+01
3.505503e+02	-3.591983e+01
3.494118e+02	-3.471333e+01
3.486148e+02	-3.378200e+01
3.466793e+02	-3.187700e+01
3.453131e+02	-3.014133e+01
3.432638e+02	-2.781300e+01
3.422391e+02	-2.635250e+01
3.413283e+02	-2.501900e+01
3.407590e+02	-2.383367e+01
3.396205e+02	-2.214033e+01
3.388235e+02	-2.059517e+01
3.377989e+02	-1.858433e+01
3.372296e+02	-1.725083e+01
3.366603e+02	-1.576917e+01
3.364326e+02	-1.464733e+01
3.358634e+02	-1.289050e+01
3.354080e+02	-1.090083e+01
3.352941e+02	-1.047750e+01
3.351803e+02	-8.530167e+00
3.350664e+02	-6.625167e+00
3.350664e+02	-5.397500e+00
3.350664e+02	-4.360333e+00
3.351803e+02	-2.772833e+00
3.352941e+02	-1.418167e+00
3.357495e+02	-1.481667e-01
3.360911e+02	1.566333e+00
3.362049e+02	2.709333e+00
3.366603e+02	3.640667e+00
3.370019e+02	4.614333e+00
3.376850e+02	6.032500e+00
3.382543e+02	7.471833e+00
3.389374e+02	8.974667e+00
3.399620e+02	1.051983e+01
3.408729e+02	1.214967e+01
3.418975e+02	1.377950e+01
3.431499e+02	1.545167e+01
3.441746e+02	1.678517e+01
3.454269e+02	1.828800e+01
3.469070e+02	1.972733e+01
3.479317e+02	2.118783e+01
3.494118e+02	2.254250e+01
3.505503e+02	2.383367e+01
3.521442e+02	2.510367e+01
3.541935e+02	2.690283e+01
3.562429e+02	2.859617e+01
3.574953e+02	2.963333e+01
3.607970e+02	3.194050e+01
3.585199e+02	2.971800e+01
3.568121e+02	2.844800e+01
3.547628e+02	2.679700e+01
3.528273e+02	2.508250e+01
3.512334e+02	2.317750e+01
3.477040e+02	1.972733e+01
3.451992e+02	1.676400e+01
3.424668e+02	1.312333e+01
3.405313e+02	9.757833e+00
3.388235e+02	6.265333e+00
3.380266e+02	4.169833e+00
3.374573e+02	2.751667e+00
3.373435e+02	1.756833e+00
3.367742e+02	-3.386667e-01
3.365465e+02	-2.370667e+00
3.364326e+02	-4.529667e+00
3.365465e+02	-6.498167e+00
3.366603e+02	-8.106833e+00
3.367742e+02	-9.927167e+00
3.373435e+02	-1.202267e+01
3.376850e+02	-1.399117e+01
3.385958e+02	-1.625600e+01
3.391651e+02	-1.792817e+01
3.399620e+02	-1.970617e+01
3.407590e+02	-2.080683e+01
3.416698e+02	-2.252133e+01
3.426945e+02	-2.417233e+01
3.438330e+02	-2.571750e+01
3.456546e+02	-2.829983e+01
3.477040e+02	-3.086100e+01
3.491841e+02	-3.238500e+01
3.510057e+02	-3.412067e+01
3.523719e+02	-3.553883e+01
3.541935e+02	-3.723217e+01
3.561290e+02	-3.903133e+01
3.589753e+02	-4.114800e+01
3.636433e+02	-4.440767e+01
3.606831e+02	-4.180417e+01
3.582922e+02	-4.004733e+01
3.563567e+02	-3.829050e+01
3.541935e+02	-3.644900e+01
3.531689e+02	-3.530600e+01
3.512334e+02	-3.337983e+01
3.497533e+02	-3.181350e+01
3.474763e+02	-2.901950e+01
3.456546e+02	-2.671233e+01
3.450854e+02	-2.575983e+01
3.441746e+02	-2.419350e+01
3.430361e+02	-2.254250e+01
3.423529e+02	-2.080683e+01
3.411006e+02	-1.879600e+01
3.404175e+02	-1.667933e+01
3.395066e+02	-1.437217e+01
3.391651e+02	-1.257300e+01
3.388235e+02	-1.090083e+01
3.385958e+02	-9.038167e+00
3.385958e+02	-7.069667e+00
3.385958e+02	-5.757333e+00
3.385958e+02	-4.699000e+00
3.387097e+02	-2.899833e+00
3.389374e+02	-1.524000e+00
3.393928e+02	4.868333e-01
3.399620e+02	1.566333e+00
3.400759e+02	2.645833e+00
3.405313e+02	3.958167e+00
3.411006e+02	4.741333e+00
3.411006e+02	3.598333e+00
3.407590e+02	2.159000e+00
3.401898e+02	5.080000e-01
3.399620e+02	-1.312333e+00
3.398482e+02	-3.344333e+00
3.397343e+02	-4.953000e+00
3.398482e+02	-8.064500e+00
3.403036e+02	-1.022350e+01
3.411006e+02	-1.301750e+01
3.421252e+02	-1.553633e+01
3.425806e+02	-1.665817e+01
3.434915e+02	-1.877483e+01
3.446300e+02	-2.091267e+01
3.456546e+02	-2.254250e+01
3.466793e+02	-2.419350e+01
3.480455e+02	-2.588683e+01
3.490702e+02	-2.675467e+01
3.465655e+02	-2.254250e+01
3.458824e+02	-2.084917e+01
3.448577e+02	-1.881717e+01
3.440607e+02	-1.672167e+01
3.428083e+02	-1.399117e+01
3.426945e+02	-1.214967e+01
3.423529e+02	-1.049867e+01
3.423529e+02	-8.657167e+00
3.421252e+02	-6.815667e+00
3.423529e+02	-5.566833e+00
3.430361e+02	-8.022167e+00
3.436053e+02	-1.011767e+01
3.447438e+02	-1.274233e+01
3.457685e+02	-1.413933e+01
3.456546e+02	-1.238250e+01
3.454269e+02	-1.085850e+01
3.453131e+02	-9.694333e+00
3.451992e+02	-8.085667e+00
3.450854e+02	-6.328833e+00
3.451992e+02	-4.974167e+00
3.453131e+02	-2.963333e+00
3.456546e+02	-1.291167e+00
3.462239e+02	1.291167e+00
3.465655e+02	2.243667e+00
3.471347e+02	3.831167e+00
3.474763e+02	4.656667e+00
3.480455e+02	5.249333e+00
3.475901e+02	2.561167e+00
3.472486e+02	1.121833e+00
3.469070e+02	-1.270000e+00
3.467932e+02	-3.005667e+00
3.467932e+02	-4.974167e+00
3.467932e+02	-6.625167e+00
3.470209e+02	-8.106833e+00
3.472486e+02	-9.652000e+00
3.479317e+02	-1.221317e+01
3.485009e+02	-1.399117e+01
3.488425e+02	-1.559983e+01
3.496395e+02	-1.712383e+01
3.502087e+02	-1.773767e+01
3.499810e+02	-1.672167e+01
3.496395e+02	-1.517650e+01
3.492979e+02	-1.397000e+01
3.489564e+02	-1.210733e+01
3.487287e+02	-1.058333e+01
3.488425e+02	-9.165167e+00
3.495256e+02	-1.096433e+01
3.497533e+02	-1.225550e+01
3.505503e+02	-1.401233e+01
3.515750e+02	-1.703917e+01
3.528273e+02	-1.966383e+01
3.543074e+02	-2.224617e+01
3.555598e+02	-2.419350e+01
3.570398e+02	-2.631017e+01
3.594307e+02	-2.912533e+01
3.617078e+02	-3.139017e+01
3.602277e+02	-2.950633e+01
3.585199e+02	-2.741083e+01
3.576091e+02	-2.611967e+01
3.564706e+02	-2.415117e+01
3.552182e+02	-2.243667e+01
3.544213e+02	-2.084917e+01
3.533966e+02	-1.888067e+01
3.523719e+02	-1.667933e+01
3.515750e+02	-1.399117e+01
3.510057e+02	-1.185333e+01
3.505503e+02	-9.059333e+00
3.502087e+02	-6.307667e+00
3.503226e+02	-4.254500e+00
3.505503e+02	-2.349500e+00
3.506641e+02	-8.466667e-01
3.510057e+02	5.715000e-01
3.514611e+02	2.328333e+00
3.523719e+02	4.699000e+00
3.530550e+02	6.540500e+00
3.539658e+02	8.466667e+00
3.546490e+02	9.165167e+00
3.545351e+02	7.810500e+00
3.537381e+02	6.011333e+00
3.529412e+02	3.915833e+00
3.525996e+02	2.243667e+00
3.518027e+02	-1.291167e+00
3.513472e+02	-3.577167e+00
3.513472e+02	-6.392333e+00
3.515750e+02	-8.128000e+00
3.518027e+02	-1.011767e+01
3.522581e+02	-1.147233e+01
3.522581e+02	-1.240367e+01
3.529412e+02	-1.401233e+01
3.535104e+02	-1.670050e+01
3.547628e+02	-1.885950e+01
3.555598e+02	-2.091267e+01
3.566983e+02	-2.254250e+01
3.578368e+02	-2.425700e+01
3.589753e+02	-2.573867e+01
3.606831e+02	-2.808817e+01
3.626186e+02	-3.007783e+01
3.612524e+02	-2.813050e+01
3.604554e+02	-2.688167e+01
3.594307e+02	-2.556933e+01
3.586338e+02	-2.413000e+01
3.572676e+02	-2.205567e+01
3.565844e+02	-2.084917e+01
3.559013e+02	-1.917700e+01
3.553321e+02	-1.826683e+01
3.547628e+02	-1.667933e+01
3.541935e+02	-1.492250e+01
3.537381e+02	-1.352550e+01
3.533966e+02	-1.185333e+01
3.530550e+02	-1.022350e+01
3.529412e+02	-8.149167e+00
3.529412e+02	-6.921500e+00
3.529412e+02	-5.609167e+00
3.529412e+02	-4.296833e+00
3.529412e+02	-3.429000e+00
3.532827e+02	-2.264833e+00
3.535104e+02	-1.629833e+00
3.537381e+02	-3.175000e+00
3.536243e+02	-4.529667e+00
3.536243e+02	-6.074833e+00
3.538520e+02	-7.747000e+00
3.540797e+02	-9.694333e+00
3.544213e+02	-1.107017e+01
3.547628e+02	-1.255183e+01
3.552182e+02	-1.403350e+01
3.557875e+02	-1.559983e+01
3.562429e+02	-1.672167e+01
3.572676e+02	-1.885950e+01
3.582922e+02	-2.087033e+01
3.592030e+02	-2.258483e+01
3.600000e+02	-2.324100e+01
3.596584e+02	-2.224617e+01
3.590892e+02	-2.078567e+01
3.580645e+02	-1.900767e+01
3.574953e+02	-1.742017e+01
3.569260e+02	-1.589617e+01
3.563567e+02	-1.468967e+01
3.562429e+02	-1.373717e+01
3.557875e+02	-1.206500e+01
3.555598e+02	-1.066800e+01
3.553321e+02	-8.128000e+00
3.552182e+02	-6.350000e+00
3.553321e+02	-4.974167e+00
3.555598e+02	-3.492500e+00
3.555598e+02	-1.905000e+00
3.557875e+02	-1.100667e+00
3.561290e+02	6.773333e-01
3.564706e+02	2.053167e+00
3.572676e+02	4.466167e+00
3.581784e+02	6.011333e+00
3.588615e+02	7.641167e+00
3.595446e+02	9.609667e+00
3.605693e+02	1.149350e+01
3.617078e+02	1.314450e+01
3.634156e+02	1.494367e+01
3.627324e+02	1.312333e+01
3.611385e+02	1.094317e+01
3.603416e+02	9.313333e+00
3.595446e+02	7.620000e+00
3.589753e+02	6.032500e+00
3.579507e+02	3.492500e+00
3.576091e+02	2.222500e+00
3.571537e+02	4.233333e-01
3.570398e+02	-1.312333e+00
3.565844e+02	-3.661833e+00
3.565844e+02	-4.995333e+00
3.568121e+02	-7.641167e+00
3.569260e+02	-9.228667e+00
3.572676e+02	-1.098550e+01
3.580645e+02	-1.401233e+01
3.586338e+02	-1.581150e+01
3.590892e+02	-1.667933e+01
3.601139e+02	-1.888067e+01
3.611385e+02	-2.087033e+01
3.621632e+02	-2.258483e+01
3.631879e+02	-2.419350e+01
3.643264e+02	-2.573867e+01
3.669450e+02	-2.918883e+01
3.691082e+02	-3.155950e+01
3.720683e+02	-3.439583e+01
3.742315e+02	-3.619500e+01
3.718406e+02	-3.361267e+01
3.694497e+02	-3.098800e+01
3.675142e+02	-2.885017e+01
3.663757e+02	-2.741083e+01
3.651233e+02	-2.548467e+01
3.643264e+02	-2.419350e+01
3.631879e+02	-2.254250e+01
3.622770e+02	-2.084917e+01
3.612524e+02	-1.879600e+01
3.603416e+02	-1.672167e+01
3.596584e+02	-1.399117e+01
3.592030e+02	-1.210733e+01
3.586338e+02	-9.546167e+00
3.585199e+02	-8.085667e+00
3.584061e+02	-6.371167e+00
3.585199e+02	-5.164667e+00
3.588615e+02	-3.132667e+00
3.589753e+02	-1.291167e+00
3.594307e+02	5.291667e-01
3.597723e+02	2.286000e+00
3.603416e+02	3.704167e+00
3.607970e+02	4.974167e+00
3.615939e+02	6.582833e+00
3.622770e+02	7.958667e+00
3.634156e+02	1.039283e+01
3.642125e+02	1.178983e+01
3.653510e+02	1.312333e+01
3.666034e+02	1.507067e+01
3.679696e+02	1.678517e+01
3.696774e+02	1.869017e+01
3.707021e+02	1.996017e+01
3.727514e+02	2.203450e+01
3.744592e+02	2.364317e+01
3.757116e+02	2.497667e+01
3.774194e+02	2.605617e+01
3.753700e+02	2.398183e+01
3.734345e+02	2.186517e+01
3.720683e+02	2.029883e+01
3.713852e+02	1.966383e+01
3.697913e+02	1.790700e+01
3.689943e+02	1.678517e+01
3.671727e+02	1.454150e+01
3.662619e+02	1.310217e+01
3.648956e+02	1.081617e+01
3.644402e+02	9.694333e+00
3.626186e+02	6.032500e+00
3.620493e+02	4.360333e+00
3.612524e+02	2.243667e+00
3.607970e+02	2.328333e-01
3.605693e+02	-1.312333e+00
3.605693e+02	-2.518833e+00
3.603416e+02	-4.889500e+00
3.604554e+02	-7.344833e+00
3.605693e+02	-9.017000e+00
3.610247e+02	-1.113367e+01
3.618216e+02	-1.401233e+01
3.626186e+02	-1.672167e+01
3.634156e+02	-1.807633e+01
3.646679e+02	-2.084917e+01
3.656926e+02	-2.260600e+01
3.664896e+02	-2.421467e+01
3.676281e+02	-2.578100e+01
3.700190e+02	-2.899833e+01
3.733207e+02	-3.240617e+01
3.774194e+02	-3.644900e+01
3.831120e+02	-4.116917e+01
3.884630e+02	-4.525433e+01
3.917647e+02	-4.743450e+01
3.931309e+02	-4.811183e+01
3.922201e+02	-4.724400e+01
3.899431e+02	-4.557183e+01
3.873245e+02	-4.375150e+01
3.851613e+02	-4.207933e+01
3.831120e+02	-4.064000e+01
3.811765e+02	-3.892550e+01
3.794687e+02	-3.750733e+01
3.776471e+02	-3.583517e+01
3.754839e+02	-3.352800e+01
3.732068e+02	-3.107267e+01
3.722960e+02	-3.001433e+01
3.704744e+02	-2.751667e+01
3.685389e+02	-2.506133e+01
3.676281e+02	-2.381250e+01
3.670588e+02	-2.269067e+01
3.660342e+02	-2.084917e+01
3.652372e+02	-1.955800e+01
3.646679e+02	-1.826683e+01
3.640987e+02	-1.608667e+01
3.631879e+02	-1.373717e+01
3.628463e+02	-1.189567e+01
3.626186e+02	-1.039283e+01
3.623909e+02	-8.741833e+00
3.622770e+02	-7.387167e+00
3.622770e+02	-5.778500e+00
3.622770e+02	-4.635500e+00
3.623909e+02	-3.683000e+00
3.625047e+02	-2.836333e+00
3.627324e+02	-1.333500e+00
3.630740e+02	1.058333e-01
3.633017e+02	1.185333e+00
3.638710e+02	1.926167e+00
3.638710e+02	8.890000e-01
3.638710e+02	-5.926667e-01
3.636433e+02	-1.862667e+00
3.635294e+02	-4.042833e+00
3.635294e+02	-4.974167e+00
3.635294e+02	-6.921500e+00
3.637571e+02	-8.678333e+00
3.640987e+02	-1.007533e+01
3.643264e+02	-1.153583e+01
3.648956e+02	-1.322917e+01
3.656926e+02	-1.551517e+01
3.662619e+02	-1.725083e+01
3.672865e+02	-1.934633e+01
3.683112e+02	-2.089150e+01
3.691082e+02	-2.254250e+01
3.701328e+02	-2.425700e+01
3.711575e+02	-2.573867e+01
3.740038e+02	-2.925233e+01
3.766224e+02	-3.213100e+01
3.787856e+02	-3.437467e+01
3.800380e+02	-3.536950e+01
3.794687e+02	-3.429000e+01
3.776471e+02	-3.270250e+01
3.763947e+02	-3.111500e+01
3.750285e+02	-2.956983e+01
3.742315e+02	-2.846917e+01
3.732068e+02	-2.700867e+01
3.719545e+02	-2.548467e+01
3.708159e+02	-2.374900e+01
3.701328e+02	-2.254250e+01
3.694497e+02	-2.125133e+01
3.686528e+02	-1.993900e+01
3.676281e+02	-1.722967e+01
3.667173e+02	-1.545167e+01
3.661480e+02	-1.403350e+01
3.660342e+02	-1.225550e+01
3.659203e+02	-1.100667e+01
3.655787e+02	-9.186333e+00
3.653510e+02	-8.128000e+00
3.653510e+02	-6.731000e+00
3.653510e+02	-5.418667e+00
3.654649e+02	-4.593167e+00
3.655787e+02	-2.370667e+00
3.658065e+02	-6.561667e-01
3.663757e+02	1.545167e+00
3.669450e+02	3.302000e+00
3.672865e+02	4.254500e+00
3.677419e+02	5.630333e+00
3.688805e+02	8.001000e+00
3.699051e+02	9.376833e+00
3.693359e+02	7.302500e+00
3.681973e+02	4.826000e+00
3.677419e+02	3.048000e+00
3.670588e+02	8.466667e-02
3.667173e+02	-1.651000e+00
3.666034e+02	-3.344333e+00
3.667173e+02	-4.995333e+00
3.668311e+02	-6.879167e+00
3.669450e+02	-8.847667e+00
3.671727e+02	-1.066800e+01
3.678558e+02	-1.312333e+01
3.680835e+02	-1.403350e+01
3.688805e+02	-1.674283e+01
3.699051e+02	-1.890183e+01
3.710436e+02	-2.084917e+01
3.719545e+02	-2.260600e+01
3.732068e+02	-2.423583e+01
3.727514e+02	-2.277533e+01
3.717268e+02	-2.084917e+01
3.708159e+02	-1.881717e+01
3.700190e+02	-1.670050e+01
3.693359e+02	-1.509183e+01
3.688805e+02	-1.322917e+01
3.683112e+02	-1.037167e+01
3.679696e+02	-8.106833e+00
3.679696e+02	-6.201833e+00
3.681973e+02	-4.614333e+00
3.683112e+02	-3.894667e+00
3.685389e+02	-3.153833e+00
3.693359e+02	-4.614333e+00
3.696774e+02	-3.429000e+00
3.699051e+02	-2.370667e+00
3.707021e+02	-1.375833e+00
3.709298e+02	-2.709333e+00
3.710436e+02	-4.635500e+00
3.712713e+02	-6.667500e+00
3.714991e+02	-8.128000e+00
3.718406e+02	-1.003300e+01
3.722960e+02	-1.136650e+01
3.728653e+02	-1.403350e+01
3.735484e+02	-1.593850e+01
3.742315e+02	-1.739900e+01
3.750285e+02	-1.888067e+01
3.760531e+02	-2.089150e+01
3.769639e+02	-2.260600e+01
3.779886e+02	-2.425700e+01
3.788994e+02	-2.571750e+01
3.811765e+02	-2.827867e+01
3.839089e+02	-3.124200e+01
3.856167e+02	-3.318933e+01
3.881214e+02	-3.541183e+01
3.894877e+02	-3.642783e+01
3.868691e+02	-3.367617e+01
3.849336e+02	-3.162300e+01
3.829981e+02	-2.925233e+01
3.814042e+02	-2.717800e+01
3.800380e+02	-2.544233e+01
3.792410e+02	-2.421467e+01
3.781025e+02	-2.252133e+01
3.767362e+02	-1.955800e+01
3.754839e+02	-1.672167e+01
3.750285e+02	-1.401233e+01
3.741176e+02	-1.138767e+01
3.737761e+02	-8.847667e+00
3.737761e+02	-7.874000e+00
3.737761e+02	-5.609167e+00
3.738899e+02	-3.725333e+00
3.740038e+02	-1.947333e+00
3.743454e+02	-4.868333e-01
3.748008e+02	1.566333e+00
3.753700e+02	2.857500e+00
3.763947e+02	5.312833e+00
3.760531e+02	2.243667e+00
3.751423e+02	-1.333500e+00
3.749146e+02	-5.037667e+00
3.753700e+02	-8.128000e+00
3.759393e+02	-1.147233e+01
3.766224e+02	-1.377950e+01
3.773055e+02	-1.475317e+01
3.775332e+02	-1.341967e+01
3.779886e+02	-1.130300e+01
3.778748e+02	-8.106833e+00
3.778748e+02	-6.223000e+00
3.782163e+02	-4.191000e+00
3.787856e+02	-6.773333e+00
3.792410e+02	-9.249833e+00
3.798102e+02	-1.134533e+01
3.807211e+02	-1.403350e+01
3.817457e+02	-1.672167e+01
3.827704e+02	-1.888067e+01
3.840228e+02	-2.087033e+01
3.848197e+02	-2.262717e+01
3.861860e+02	-2.410883e+01
3.856167e+02	-2.241550e+01
3.843643e+02	-1.987550e+01
3.839089e+02	-1.883833e+01
3.829981e+02	-1.674283e+01
3.820873e+02	-1.401233e+01
3.816319e+02	-1.187450e+01
3.812903e+02	-1.003300e+01
3.811765e+02	-8.128000e+00
3.810626e+02	-6.604000e+00
3.810626e+02	-4.953000e+00
3.812903e+02	-3.111500e+00
3.816319e+02	-1.312333e+00
3.820873e+02	7.196667e-01
3.827704e+02	3.090333e+00
3.835674e+02	5.058833e+00
3.840228e+02	6.498167e+00
3.849336e+02	8.318500e+00
3.860721e+02	9.927167e+00
3.855028e+02	7.979833e+00
3.847059e+02	6.032500e+00
3.835674e+02	2.222500e+00
3.827704e+02	-1.312333e+00
3.824288e+02	-4.995333e+00
3.827704e+02	-8.170333e+00
3.834535e+02	-1.157817e+01
3.839089e+02	-1.403350e+01
3.850474e+02	-1.672167e+01
3.859583e+02	-1.885950e+01
3.870968e+02	-2.087033e+01
3.881214e+02	-2.260600e+01
3.891461e+02	-2.423583e+01
3.901708e+02	-2.578100e+01
3.921063e+02	-2.838450e+01
3.941556e+02	-3.062817e+01
3.963188e+02	-3.302000e+01
3.974573e+02	-3.386667e+01
3.966603e+02	-3.251200e+01
3.954080e+02	-3.086100e+01
3.930171e+02	-2.827867e+01
3.917647e+02	-2.683933e+01
3.905123e+02	-2.491317e+01
3.890323e+02	-2.258483e+01
3.880076e+02	-2.087033e+01
3.869829e+02	-1.885950e+01
3.861860e+02	-1.676400e+01
3.855028e+02	-1.401233e+01
3.849336e+02	-1.214967e+01
3.844782e+02	-1.013883e+01
3.844782e+02	-8.128000e+00
3.843643e+02	-5.482167e+00
3.844782e+02	-3.640667e+00
3.848197e+02	-1.333500e+00
3.853890e+02	4.021667e-01
3.857306e+02	-1.291167e+00
3.856167e+02	-2.603500e+00
3.853890e+02	-4.995333e+00
3.856167e+02	-7.006167e+00
3.857306e+02	-8.699500e+00
3.860721e+02	-1.111250e+01
3.866414e+02	-1.293283e+01
3.870968e+02	-1.477433e+01
3.882353e+02	-1.748367e+01
3.892600e+02	-1.940983e+01
3.901708e+02	-2.135717e+01
3.915370e+02	-2.347383e+01
3.929032e+02	-2.573867e+01
3.954080e+02	-2.878667e+01
3.980266e+02	-3.185583e+01
4.025806e+02	-3.587750e+01
3.989374e+02	-3.200400e+01
3.970019e+02	-2.961217e+01
3.947249e+02	-2.677583e+01
3.930171e+02	-2.457450e+01
3.919924e+02	-2.264833e+01
3.911954e+02	-2.093383e+01
3.899431e+02	-1.885950e+01
3.890323e+02	-1.672167e+01
3.882353e+02	-1.401233e+01
3.875522e+02	-1.107017e+01
3.868691e+02	-8.128000e+00
3.869829e+02	-4.995333e+00
3.873245e+02	-2.455333e+00
3.877799e+02	2.116667e-02
3.883491e+02	2.222500e+00
3.893738e+02	4.995333e+00
3.896015e+02	5.926667e+00
3.915370e+02	9.652000e+00
3.934725e+02	1.242483e+01
3.916509e+02	8.276167e+00
3.902846e+02	4.995333e+00
3.892600e+02	1.799167e+00
3.890323e+02	-1.333500e+00
3.886907e+02	-4.974167e+00
3.889184e+02	-8.170333e+00
3.891461e+02	-9.884833e+00
3.897154e+02	-1.234017e+01
3.902846e+02	-1.403350e+01
3.909677e+02	-1.674283e+01
3.921063e+02	-1.883833e+01
3.932448e+02	-2.042583e+01
3.931309e+02	-1.885950e+01
3.922201e+02	-1.676400e+01
3.914231e+02	-1.405467e+01
3.909677e+02	-1.083733e+01
3.906262e+02	-8.191500e+00
3.907400e+02	-5.672667e+00
3.911954e+02	-4.064000e+00
3.917647e+02	-6.773333e+00
3.918786e+02	-8.191500e+00
3.923340e+02	-1.051983e+01
3.927894e+02	-1.282700e+01
3.930171e+02	-1.403350e+01
3.943833e+02	-1.638300e+01
3.942694e+02	-1.405467e+01
3.937002e+02	-1.102783e+01
3.934725e+02	-8.170333e+00
3.937002e+02	-5.799667e+00
3.943833e+02	-8.064500e+00
3.949526e+02	-1.066800e+01
3.958634e+02	-1.312333e+01
3.958634e+02	-1.416050e+01
3.968880e+02	-1.589617e+01
3.973435e+02	-1.714500e+01
3.973435e+02	-1.485900e+01
3.968880e+02	-1.276350e+01
3.963188e+02	-1.022350e+01
3.960911e+02	-8.212667e+00
3.964326e+02	-7.789333e+00
3.970019e+02	-9.080500e+00
3.973435e+02	-1.107017e+01
3.981404e+02	-1.401233e+01
3.991651e+02	-1.674283e+01
4.001898e+02	-1.885950e+01
4.013283e+02	-2.089150e+01
4.022391e+02	-2.262717e+01
4.032638e+02	-2.423583e+01
4.045161e+02	-2.575983e+01
4.054269e+02	-2.667000e+01
4.051992e+02	-2.573867e+01
4.042884e+02	-2.421467e+01
4.031499e+02	-2.262717e+01
4.023529e+02	-2.095500e+01
4.014421e+02	-1.883833e+01
4.005313e+02	-1.678517e+01
3.998482e+02	-1.403350e+01
3.991651e+02	-1.143000e+01
3.989374e+02	-9.101667e+00
3.988235e+02	-8.106833e+00
3.989374e+02	-5.926667e+00
3.990512e+02	-4.995333e+00
3.991651e+02	-2.815167e+00
3.993928e+02	-1.312333e+00
3.999620e+02	-2.328333e-01
4.001898e+02	-1.354667e+00
4.000759e+02	-3.429000e+00
4.000759e+02	-5.016500e+00
4.004175e+02	-8.149167e+00
4.005313e+02	-9.842500e+00
4.013283e+02	-1.200150e+01
4.017837e+02	-1.403350e+01
4.029222e+02	-1.680633e+01
4.046300e+02	-1.911350e+01
4.040607e+02	-1.680633e+01
4.032638e+02	-1.403350e+01
4.028083e+02	-1.185333e+01
4.024668e+02	-1.005417e+01
4.022391e+02	-8.170333e+00
4.022391e+02	-7.450667e+00
4.026945e+02	-5.016500e+00
4.032638e+02	-8.128000e+00
4.041746e+02	-1.225550e+01
4.053131e+02	-1.507067e+01
4.061101e+02	-1.674283e+01
4.058824e+02	-1.405467e+01
4.051992e+02	-1.087967e+01
4.050854e+02	-8.657167e+00
4.049715e+02	-6.709833e+00
4.048577e+02	-4.995333e+00
4.055408e+02	-3.577167e+00
4.059962e+02	-4.995333e+00
4.058824e+02	-8.128000e+00
4.063378e+02	-1.005417e+01
4.067932e+02	-1.259417e+01
4.072486e+02	-1.407583e+01
4.080455e+02	-1.579033e+01
4.083871e+02	-1.672167e+01
4.090702e+02	-1.807633e+01
4.090702e+02	-1.678517e+01
4.083871e+02	-1.475317e+01
4.078178e+02	-1.198033e+01
4.074763e+02	-9.736667e+00
4.072486e+02	-8.128000e+00
4.072486e+02	-5.757333e+00
4.078178e+02	-4.275667e+00
4.081594e+02	-4.995333e+00
4.081594e+02	-6.434667e+00
4.081594e+02	-8.043333e+00
4.086148e+02	-9.503833e+00
4.090702e+02	-1.098550e+01
4.094118e+02	-1.253067e+01
4.098672e+02	-1.405467e+01
4.110057e+02	-1.680633e+01
4.121442e+02	-1.833033e+01
4.121442e+02	-1.678517e+01
4.114611e+02	-1.403350e+01
4.110057e+02	-1.123950e+01
4.108918e+02	-8.149167e+00
4.108918e+02	-4.995333e+00
4.111195e+02	-2.730500e+00
4.114611e+02	-1.354667e+00
4.118027e+02	-8.043333e-01
4.121442e+02	-1.312333e+00
4.122581e+02	-2.349500e+00
4.122581e+02	-4.021667e+00
4.122581e+02	-4.974167e+00
4.123719e+02	-7.598833e+00
4.128273e+02	-1.011767e+01
4.136243e+02	-1.327150e+01
4.147628e+02	-1.674283e+01
4.160152e+02	-1.873250e+01
4.159013e+02	-1.678517e+01
4.149905e+02	-1.445683e+01
4.145351e+02	-1.267883e+01
4.144213e+02	-1.094317e+01
4.145351e+02	-9.779000e+00
4.154459e+02	-1.242483e+01
4.161290e+02	-1.405467e+01
4.171537e+02	-1.676400e+01
4.187476e+02	-1.902883e+01
4.182922e+02	-1.676400e+01
4.173814e+02	-1.403350e+01
4.169260e+02	-1.079500e+01
4.166983e+02	-8.106833e+00
4.170398e+02	-5.947833e+00
4.176091e+02	-8.128000e+00
4.181784e+02	-1.090083e+01
4.189753e+02	-1.405467e+01
4.207970e+02	-1.672167e+01
4.203416e+02	-1.409700e+01
4.198861e+02	-1.123950e+01
4.195446e+02	-8.128000e+00
4.198861e+02	-7.027333e+00
4.207970e+02	-8.128000e+00
4.217078e+02	-1.140883e+01
4.230740e+02	-1.405467e+01
4.244402e+02	-1.638300e+01
4.239848e+02	-1.405467e+01
4.236433e+02	-1.107017e+01
4.231879e+02	-8.170333e+00
4.234156e+02	-6.053667e+00
4.236433e+02	-5.270500e+00
4.245541e+02	-7.641167e+00
4.248956e+02	-1.047750e+01
4.258065e+02	-1.403350e+01
4.269450e+02	-1.657350e+01
4.275142e+02	-1.701800e+01
4.269450e+02	-1.432983e+01
4.262619e+02	-1.168400e+01
4.262619e+02	-9.630833e+00
4.269450e+02	-9.779000e+00
4.271727e+02	-9.271000e+00
4.279696e+02	-1.126067e+01
4.288805e+02	-1.354667e+01
4.299051e+02	-1.684867e+01
4.314991e+02	-1.972733e+01
4.326376e+02	-2.131483e+01
4.320683e+02	-1.890183e+01
4.309298e+02	-1.672167e+01
4.299051e+02	-1.407583e+01
4.294497e+02	-1.111250e+01
4.289943e+02	-8.212667e+00
4.292220e+02	-5.016500e+00
4.295636e+02	-2.413000e+00
4.299051e+02	-7.196667e-01
4.305882e+02	7.408333e-01
4.308159e+02	-1.312333e+00
4.303605e+02	-5.080000e+00
4.307021e+02	-8.212667e+00
4.313852e+02	-1.130300e+01
4.322960e+02	-1.416050e+01
4.334345e+02	-1.695450e+01
4.342315e+02	-1.805517e+01
4.340038e+02	-1.672167e+01
4.332068e+02	-1.405467e+01
4.324099e+02	-1.109133e+01
4.321822e+02	-8.678333e+00
4.319545e+02	-6.561667e+00
4.320683e+02	-5.016500e+00
4.326376e+02	-3.852333e+00
4.328653e+02	-5.037667e+00
4.330930e+02	-7.239000e+00
4.334345e+02	-1.005417e+01
4.338899e+02	-1.250950e+01
4.345731e+02	-1.407583e+01
4.353700e+02	-1.623483e+01
4.366224e+02	-1.811867e+01
4.373055e+02	-1.947333e+01
4.363947e+02	-1.678517e+01
4.357116e+02	-1.405467e+01
4.351423e+02	-1.056217e+01
4.348008e+02	-8.170333e+00
4.349146e+02	-5.058833e+00
4.353700e+02	-2.921000e+00
4.359393e+02	-4.995333e+00
4.361670e+02	-8.128000e+00
4.366224e+02	-1.018117e+01
4.379886e+02	-1.405467e+01
4.388994e+02	-1.672167e+01
4.399241e+02	-1.746250e+01
4.402657e+02	-1.676400e+01
4.402657e+02	-1.403350e+01
4.400380e+02	-1.143000e+01
4.404934e+02	-9.038167e+00
4.419734e+02	-1.153583e+01
4.428843e+02	-1.416050e+01
4.439089e+02	-1.680633e+01
4.447059e+02	-1.890183e+01
4.460721e+02	-2.074333e+01
4.453890e+02	-1.885950e+01
4.448197e+02	-1.695450e+01
4.439089e+02	-1.405467e+01
4.433397e+02	-1.151467e+01
4.429981e+02	-9.503833e+00
4.427704e+02	-8.149167e+00
4.428843e+02	-5.461000e+00
4.431120e+02	-2.857500e+00
4.434535e+02	-8.890000e-01
4.442505e+02	4.656667e-01
4.440228e+02	-1.333500e+00
4.441366e+02	-4.995333e+00
4.444782e+02	-8.128000e+00
4.449336e+02	-1.062567e+01
4.457306e+02	-1.401233e+01
4.466414e+02	-1.653117e+01
4.477799e+02	-1.894417e+01
4.489184e+02	-2.101850e+01
4.500569e+02	-2.269067e+01
4.509677e+02	-2.425700e+01
4.521063e+02	-2.578100e+01
4.538140e+02	-2.774950e+01
4.527894e+02	-2.571750e+01
4.514231e+02	-2.379133e+01
4.506262e+02	-2.233083e+01
4.493738e+02	-2.012950e+01
4.485769e+02	-1.780117e+01
4.470968e+02	-1.439333e+01
4.464137e+02	-1.098550e+01
4.460721e+02	-8.128000e+00
4.459583e+02	-5.037667e+00
4.461860e+02	-2.243667e+00
4.466414e+02	-4.233333e-02
4.476660e+02	2.730500e+00
4.473245e+02	-1.418167e+00
4.472106e+02	-5.037667e+00
4.474383e+02	-8.212667e+00
4.480076e+02	-1.151467e+01
4.486907e+02	-1.272117e+01
4.485769e+02	-9.567333e+00
4.484630e+02	-6.815667e+00
4.486907e+02	-4.762500e+00
4.491461e+02	-3.788833e+00
4.494877e+02	-5.037667e+00
4.498292e+02	-8.064500e+00
4.505123e+02	-1.107017e+01
4.511954e+02	-1.403350e+01
4.524478e+02	-1.680633e+01
4.533586e+02	-1.888067e+01
4.544972e+02	-2.099733e+01
4.556357e+02	-2.271183e+01
4.567742e+02	-2.432050e+01
4.583681e+02	-2.628900e+01
4.576850e+02	-2.465917e+01
4.564326e+02	-2.264833e+01
4.556357e+02	-2.099733e+01
4.547249e+02	-1.883833e+01
4.538140e+02	-1.674283e+01
4.531309e+02	-1.407583e+01
4.525617e+02	-1.136650e+01
4.522201e+02	-8.233833e+00
4.525617e+02	-5.736167e+00
4.533586e+02	-8.170333e+00
4.537002e+02	-1.064683e+01
4.544972e+02	-1.299633e+01
4.555218e+02	-1.468967e+01
4.556357e+02	-1.401233e+01
4.552941e+02	-1.090083e+01
4.550664e+02	-8.763000e+00
4.554080e+02	-8.001000e+00
4.562049e+02	-9.609667e+00
4.572296e+02	-1.185333e+01
4.576850e+02	-9.863667e+00
4.580266e+02	-8.720667e+00
4.583681e+02	-8.551333e+00
4.597343e+02	-1.094317e+01
4.609867e+02	-1.409700e+01
4.624668e+02	-1.684867e+01
4.633776e+02	-1.809750e+01
4.629222e+02	-1.606550e+01
4.623529e+02	-1.411817e+01
4.617837e+02	-1.100667e+01
4.621252e+02	-8.911167e+00
4.631499e+02	-1.248833e+01
4.647438e+02	-1.604433e+01
4.642884e+02	-1.280583e+01
4.641746e+02	-1.060450e+01
4.642884e+02	-1.001183e+01
4.648577e+02	-9.736667e+00
4.650854e+02	-8.085667e+00
4.654269e+02	-5.736167e+00
4.659962e+02	-4.699000e+00
4.670209e+02	-8.382000e+00
4.678178e+02	-1.204383e+01
4.687287e+02	-1.409700e+01
4.699810e+02	-1.678517e+01
4.713472e+02	-1.888067e+01
4.720304e+02	-1.930400e+01
4.715750e+02	-1.820333e+01
4.712334e+02	-1.676400e+01
4.704364e+02	-1.405467e+01
4.698672e+02	-1.060450e+01
4.699810e+02	-8.128000e+00
4.703226e+02	-6.032500e+00
4.712334e+02	-8.128000e+00
4.723719e+02	-1.128183e+01
4.733966e+02	-1.407583e+01
4.746490e+02	-1.507067e+01
4.751044e+02	-1.363133e+01
4.749905e+02	-1.100667e+01
4.756736e+02	-8.657167e+00
4.765844e+02	-1.005417e+01
4.774953e+02	-9.990667e+00
4.785199e+02	-1.119717e+01
4.798861e+02	-1.401233e+01
4.814801e+02	-1.634067e+01
4.814801e+02	-1.405467e+01
4.809108e+02	-1.096433e+01
4.809108e+02	-8.720667e+00
4.809108e+02	-7.789333e+00
4.815939e+02	-8.932333e+00
4.821632e+02	-1.068917e+01
4.835294e+02	-1.282700e+01
4.842125e+02	-1.259417e+01
4.854649e+02	-1.280583e+01
4.864896e+02	-1.352550e+01
4.874004e+02	-1.147233e+01
4.881973e+02	-1.168400e+01
4.887666e+02	-1.062567e+01
4.892220e+02	-8.276167e+00
4.894497e+02	-7.493000e+00
4.901328e+02	-7.260167e+00
4.914991e+02	-8.255000e+00
4.930930e+02	-1.170517e+01
4.944592e+02	-1.185333e+01
4.955977e+02	-1.257300e+01
4.959393e+02	-1.183217e+01
4.961670e+02	-1.039283e+01
4.970778e+02	-1.219200e+01
4.978748e+02	-1.407583e+01
4.990133e+02	-1.646767e+01
5.007211e+02	-1.888067e+01
5.004934e+02	-1.644650e+01
4.996964e+02	-1.403350e+01
4.994687e+02	-1.189567e+01
4.996964e+02	-1.096433e+01
5.015180e+02	-1.403350e+01
5.026565e+02	-1.602317e+01
5.032258e+02	-1.519767e+01
5.028843e+02	-1.405467e+01
5.027704e+02	-1.162050e+01
5.027704e+02	-9.884833e+00
5.031120e+02	-8.636000e+00
5.044782e+02	-9.927167e+00
5.052751e+02	-8.784167e+00
5.059583e+02	-7.154333e+00
5.067552e+02	-8.212667e+00
5.076660e+02	-1.049867e+01
5.085769e+02	-9.207500e+00
5.089184e+02	-8.763000e+00
5.096015e+02	-1.045633e+01
5.105123e+02	-1.151467e+01
5.111954e+02	-1.115483e+01
5.118786e+02	-1.253067e+01
5.127894e+02	-1.403350e+01
5.140417e+02	-1.672167e+01
5.152941e+02	-1.898650e+01
5.162049e+02	-2.004483e+01
5.155218e+02	-1.722967e+01
5.143833e+02	-1.409700e+01
5.139279e+02	-1.081617e+01
5.137002e+02	-8.233833e+00
5.141556e+02	-7.154333e+00
5.151803e+02	-1.003300e+01
5.160911e+02	-1.303867e+01
5.171157e+02	-1.500717e+01
5.183681e+02	-1.722967e+01
5.180266e+02	-1.456267e+01
5.174573e+02	-1.166283e+01
5.172296e+02	-8.678333e+00
5.172296e+02	-5.778500e+00
5.176850e+02	-3.598333e+00
5.180266e+02	-5.037667e+00
5.183681e+02	-8.212667e+00
5.191651e+02	-1.189567e+01
5.197343e+02	-1.403350e+01
5.207590e+02	-1.680633e+01
5.217837e+02	-1.892300e+01
5.231499e+02	-2.082800e+01
5.234915e+02	-2.148417e+01
5.234915e+02	-2.010833e+01
5.222391e+02	-1.708150e+01
5.212144e+02	-1.409700e+01
5.204175e+02	-9.990667e+00
5.203036e+02	-8.212667e+00
5.206452e+02	-5.185833e+00
5.214421e+02	-8.255000e+00
5.220114e+02	-1.100667e+01
5.225806e+02	-1.403350e+01
5.237192e+02	-1.689100e+01
5.245161e+02	-1.892300e+01
5.265655e+02	-2.123017e+01
5.256546e+02	-1.883833e+01
5.247438e+02	-1.642533e+01
5.240607e+02	-1.411817e+01
5.233776e+02	-1.113367e+01
5.230361e+02	-8.297333e+00
5.230361e+02	-5.249333e+00
5.234915e+02	-1.968500e+00
5.242884e+02	4.233333e-02
5.245161e+02	-1.481667e+00
5.245161e+02	-4.550833e+00
5.247438e+02	-8.170333e+00
5.254269e+02	-1.032933e+01
5.264516e+02	-1.397000e+01
5.279317e+02	-1.653117e+01
5.278178e+02	-1.407583e+01
5.273624e+02	-1.134533e+01
5.272486e+02	-8.720667e+00
5.273624e+02	-6.244167e+00
5.278178e+02	-4.529667e+00
5.285009e+02	-5.058833e+00
5.288425e+02	-8.212667e+00
5.296395e+02	-1.147233e+01
5.305503e+02	-1.405467e+01
5.320304e+02	-1.659467e+01
5.327135e+02	-1.485900e+01
5.344213e+02	-1.651000e+01
5.343074e+02	-1.473200e+01
5.340797e+02	-1.274233e+01
5.337381e+02	-1.016000e+01
5.336243e+02	-8.297333e+00
5.336243e+02	-6.011333e+00
5.341935e+02	-4.762500e+00
5.349905e+02	-7.641167e+00
5.359013e+02	-1.168400e+01
5.363567e+02	-1.397000e+01
5.374953e+02	-1.566333e+01
5.373814e+02	-1.397000e+01
5.372676e+02	-1.212850e+01
5.370398e+02	-9.461500e+00
5.372676e+02	-7.916333e+00
5.380645e+02	-9.884833e+00
5.390892e+02	-1.172633e+01
5.402277e+02	-1.185333e+01
5.412524e+02	-1.401233e+01
5.427324e+02	-1.587500e+01
5.429602e+02	-1.403350e+01
5.430740e+02	-1.244600e+01
5.429602e+02	-1.178983e+01
5.435294e+02	-1.054100e+01
5.442125e+02	-8.995833e+00
5.450095e+02	-8.445500e+00
5.456926e+02	-9.863667e+00
5.470588e+02	-1.229783e+01
5.472865e+02	-1.068917e+01
5.475142e+02	-9.249833e+00
5.477419e+02	-8.636000e+00
5.496774e+02	-1.210733e+01
5.503605e+02	-1.219200e+01
5.512713e+02	-1.181100e+01
5.513852e+02	-1.054100e+01
5.520683e+02	-9.779000e+00
5.530930e+02	-1.178983e+01
5.538899e+02	-1.363133e+01
5.546869e+02	-1.543050e+01
5.553700e+02	-1.629833e+01
5.553700e+02	-1.325033e+01
5.557116e+02	-1.231900e+01
5.577609e+02	-1.301750e+01
5.583302e+02	-1.259417e+01
5.583302e+02	-1.039283e+01
5.588994e+02	-7.979833e+00
5.603795e+02	-1.051983e+01
5.608349e+02	-1.085850e+01
5.624288e+02	-9.990667e+00
5.629981e+02	-1.121833e+01
5.640228e+02	-1.316567e+01
5.655028e+02	-1.536700e+01
5.659583e+02	-1.471083e+01
5.658444e+02	-1.341967e+01
5.658444e+02	-1.214967e+01
5.665275e+02	-1.075267e+01
5.673245e+02	-1.045633e+01
5.694877e+02	-1.064683e+01
5.703985e+02	-1.162050e+01
5.723340e+02	-1.441450e+01
5.731309e+02	-1.517650e+01
5.735863e+02	-1.399117e+01
5.732448e+02	-1.164167e+01
5.733586e+02	-9.673167e+00
5.733586e+02	-9.101667e+00
5.741556e+02	-1.037167e+01
5.750664e+02	-1.221317e+01
5.759772e+02	-1.403350e+01
5.763188e+02	-1.413933e+01
5.764326e+02	-1.219200e+01
5.762049e+02	-1.005417e+01
5.763188e+02	-8.487833e+00
5.763188e+02	-7.874000e+00
5.773435e+02	-9.271000e+00
5.780266e+02	-1.157817e+01
5.789374e+02	-1.346200e+01
5.793928e+02	-1.238250e+01
5.793928e+02	-1.028700e+01
5.796205e+02	-8.826500e+00
5.807590e+02	-1.068917e+01
5.818975e+02	-1.272117e+01
5.824668e+02	-1.151467e+01
5.829222e+02	-1.138767e+01
5.842884e+02	-1.352550e+01
5.855408e+02	-1.492250e+01
5.858824e+02	-1.289050e+01
5.858824e+02	-1.085850e+01
5.863378e+02	-1.001183e+01
5.865655e+02	-9.821333e+00
5.878178e+02	-1.018117e+01
5.894118e+02	-1.265767e+01
5.903226e+02	-1.293283e+01
5.916888e+02	-1.231900e+01
5.927135e+02	-1.119717e+01
5.938520e+02	-1.123950e+01
5.945351e+02	-1.092200e+01
5.956736e+02	-1.170517e+01
5.968121e+02	-1.178983e+01
5.979507e+02	-1.132417e+01
5.981784e+02	-1.098550e+01
5.994307e+02	-1.107017e+01
6.015939e+02	-1.327150e+01
6.027324e+02	-1.445683e+01
6.033017e+02	-1.452033e+01
6.035294e+02	-1.305983e+01
6.035294e+02	-1.047750e+01
6.037571e+02	-8.530167e+00
6.046679e+02	-1.020233e+01
6.059203e+02	-1.223433e+01
6.067173e+02	-9.948333e+00
6.079696e+02	-1.181100e+01
6.089943e+02	-1.322917e+01
6.094497e+02	-1.168400e+01
6.100190e+02	-1.071033e+01
6.111575e+02	-1.157817e+01
6.126376e+02	-1.320800e+01
6.133207e+02	-1.123950e+01
6.138899e+02	-9.440333e+00
6.153700e+02	-1.157817e+01
6.176471e+02	-1.445683e+01
6.178748e+02	-1.037167e+01
6.184440e+02	-7.852833e+00
6.199241e+02	-1.064683e+01
6.214042e+02	-1.297517e+01
6.228843e+02	-1.143000e+01
6.244782e+02	-1.303867e+01
6.264137e+02	-1.515533e+01
6.266414e+02	-1.274233e+01
6.269829e+02	-1.035050e+01
6.278937e+02	-8.911167e+00
6.282353e+02	-8.530167e+00
6.288046e+02	-1.016000e+01
6.303985e+02	-1.234017e+01
6.311954e+02	-1.227667e+01
6.315370e+02	-1.123950e+01
6.319924e+02	-1.096433e+01
6.332448e+02	-1.291167e+01
6.347249e+02	-1.519767e+01
6.347249e+02	-1.185333e+01
6.350664e+02	-8.128000e+00
6.368880e+02	-1.064683e+01
6.384820e+02	-1.013883e+01
6.399620e+02	-1.248833e+01
6.415560e+02	-1.500717e+01
6.422391e+02	-1.449917e+01
6.421252e+02	-1.244600e+01
6.425806e+02	-1.140883e+01
6.436053e+02	-1.200150e+01
6.446300e+02	-1.151467e+01
6.469070e+02	-1.221317e+01
6.477040e+02	-1.193800e+01
6.486148e+02	-1.026583e+01
6.499810e+02	-1.075267e+01
6.508918e+02	-1.030817e+01
6.529412e+02	-1.346200e+01
6.540797e+02	-1.466850e+01
6.541935e+02	-1.350433e+01
6.541935e+02	-1.189567e+01
6.544213e+02	-9.969500e+00
6.547628e+02	-9.440333e+00
6.556736e+02	-1.140883e+01
6.572676e+02	-1.435100e+01
6.573814e+02	-1.242483e+01
6.576091e+02	-1.009650e+01
6.581784e+02	-8.614833e+00
6.596584e+02	-1.032933e+01
6.611385e+02	-1.221317e+01
6.630740e+02	-1.198033e+01
6.652372e+02	-1.325033e+01
6.658065e+02	-1.284817e+01
6.660342e+02	-1.003300e+01
6.664896e+02	-9.715500e+00
6.677419e+02	-1.174750e+01
6.685389e+02	-1.227667e+01
6.696774e+02	-1.153583e+01
6.714991e+02	-1.187450e+01
6.728653e+02	-1.162050e+01
6.732068e+02	-1.020233e+01
6.746869e+02	-1.185333e+01
6.753700e+02	-1.234017e+01
6.769639e+02	-1.123950e+01
6.778748e+02	-1.145117e+01
6.791271e+02	-1.325033e+01
6.802657e+02	-1.289050e+01
6.808349e+02	-1.071033e+01
6.829981e+02	-1.191683e+01
6.866414e+02	-1.195917e+01
6.892600e+02	-1.111250e+01
6.900569e+02	-1.143000e+01
6.927894e+02	-1.134533e+01
6.957495e+02	-1.485900e+01
6.958634e+02	-1.060450e+01
6.965465e+02	-8.678333e+00
6.989374e+02	-1.159933e+01
7.011006e+02	-1.172633e+01
7.018975e+02	-1.202267e+01
7.029222e+02	-1.174750e+01
7.034915e+02	-1.096433e+01
7.061101e+02	-1.299633e+01
7.070209e+02	-1.060450e+01
7.074763e+02	-9.694333e+00
7.096395e+02	-1.248833e+01
7.112334e+02	-1.164167e+01
7.130550e+02	-1.164167e+01
7.139658e+02	-1.126067e+01
7.156736e+02	-1.250950e+01
7.170398e+02	-1.178983e+01
7.202277e+02	-1.384300e+01
7.210247e+02	-1.157817e+01
7.221632e+02	-1.041400e+01
7.231879e+02	-9.948333e+00
7.251233e+02	-1.132417e+01
7.264896e+02	-1.113367e+01
7.279696e+02	-1.183217e+01
7.292220e+02	-1.162050e+01
7.314991e+02	-1.282700e+01
7.342315e+02	-1.250950e+01
7.357116e+02	-1.121833e+01
7.361670e+02	-1.092200e+01
7.368501e+02	-1.028700e+01
7.377609e+02	-1.174750e+01
7.400380e+02	-1.170517e+01
7.415180e+02	-1.244600e+01
7.423150e+02	-1.204383e+01
7.431120e+02	-9.927167e+00
7.452751e+02	-1.301750e+01
7.458444e+02	-1.221317e+01
7.465275e+02	-1.121833e+01
7.482353e+02	-1.267883e+01
7.497154e+02	-1.018117e+01
7.516509e+02	-1.202267e+01
7.540417e+02	-1.185333e+01
7.558634e+02	-1.195917e+01
7.573435e+02	-1.153583e+01
7.593928e+02	-1.291167e+01
7.607590e+02	-1.030817e+01
7.624668e+02	-1.229783e+01
7.641746e+02	-1.018117e+01
7.667932e+02	-1.358900e+01
7.680455e+02	-1.183217e+01
7.685009e+02	-1.217083e+01
7.705503e+02	-1.064683e+01
7.730550e+02	-1.140883e+01
7.752182e+02	-1.153583e+01
7.766983e+02	-1.244600e+01
7.773814e+02	-1.081617e+01
7.788615e+02	-1.259417e+01
7.793169e+02	-1.267883e+01
7.800000e+02	-1.231900e+01
7.815939e+02	-1.221317e+01
7.823909e+02	-1.035050e+01
7.842125e+02	-1.189567e+01
7.854649e+02	-1.136650e+01
7.869450e+02	-1.195917e+01
7.885389e+02	-1.011767e+01
7.911575e+02	-1.265767e+01
7.919545e+02	-1.172633e+01
7.944592e+02	-1.253067e+01
7.965085e+02	-1.187450e+01
7.982163e+02	-1.159933e+01
7.983302e+02	-1.094317e+01
8.015180e+02	-1.244600e+01
8.026565e+02	-1.159933e+01
8.041366e+02	-1.172633e+01
8.056167e+02	-1.117600e+01
8.070968e+02	-1.172633e+01
8.103985e+02	-1.176867e+01
8.115370e+02	-9.715500e+00
8.139279e+02	-1.327150e+01
8.146110e+02	-1.286933e+01
8.157495e+02	-1.289050e+01
8.168880e+02	-1.102783e+01
8.191651e+02	-1.155700e+01
8.213283e+02	-1.035050e+01
8.236053e+02	-1.257300e+01
8.248577e+02	-1.149350e+01
8.270209e+02	-1.344083e+01
8.291841e+02	-1.085850e+01
8.306641e+02	-9.461500e+00
8.336243e+02	-1.219200e+01
8.357875e+02	-1.159933e+01
8.384061e+02	-1.308100e+01
8.401139e+02	-1.121833e+01
8.436433e+02	-1.134533e+01
8.456926e+02	-1.291167e+01
8.476281e+02	-1.011767e+01
8.512713e+02	-1.341967e+01
8.524099e+02	-1.126067e+01
8.552562e+02	-1.261533e+01
8.574194e+02	-9.334500e+00
8.595825e+02	-1.109133e+01
8.628843e+02	-1.149350e+01
8.645920e+02	-1.214967e+01
8.676660e+02	-1.204383e+01
8.694877e+02	-1.143000e+01
8.742694e+02	-1.149350e+01
8.771157e+02	-1.147233e+01
8.796205e+02	-1.159933e+01
8.822391e+02	-1.227667e+01
8.854269e+02	-1.244600e+01
8.862239e+02	-1.111250e+01
8.890702e+02	-1.121833e+01
8.902087e+02	-1.102783e+01
8.922581e+02	-1.284817e+01
8.940797e+02	-1.259417e+01
8.949905e+02	-1.098550e+01
8.985199e+02	-1.119717e+01
9.002277e+02	-1.217083e+01
9.043264e+02	-1.204383e+01
9.074004e+02	-1.153583e+01
9.083112e+02	-1.128183e+01
9.114991e+02	-1.157817e+01
9.133207e+02	-1.191683e+01
9.166224e+02	-1.189567e+01
9.191271e+02	-1.056217e+01
9.203795e+02	-1.164167e+01
9.226565e+02	-1.223433e+01
9.248197e+02	-1.217083e+01
9.260721e+02	-1.119717e+01
9.292600e+02	-1.092200e+01
9.305123e+02	-1.200150e+01
9.325617e+02	-1.270000e+01
9.347249e+02	-1.187450e+01
9.355218e+02	-1.136650e+01
9.376850e+02	-1.208617e+01
9.395066e+02	-1.206500e+01
9.418975e+02	-1.107017e+01
9.456546e+02	-1.187450e+01
9.496395e+02	-1.178983e+01
9.506641e+02	-1.121833e+01
9.546490e+02	-1.172633e+01
9.565844e+02	-1.221317e+01
9.589753e+02	-1.143000e+01
9.610247e+02	-1.138767e+01
9.627324e+02	-1.153583e+01
9.647818e+02	-1.193800e+01
9.668311e+02	-1.145117e+01
9.689943e+02	-1.250950e+01
9.714991e+02	-1.162050e+01
9.776471e+02	-1.153583e+01
9.788994e+02	-1.202267e+01
9.806072e+02	-1.185333e+01
9.811765e+02	-1.035050e+01
9.826565e+02	-1.109133e+01
9.840228e+02	-1.187450e+01
9.876660e+02	-1.210733e+01
9.900569e+02	-1.153583e+01
9.940417e+02	-1.098550e+01
9.980266e+02	-1.204383e+01
1.001898e+03	-1.214967e+01
1.004061e+03	-1.132417e+01
1.010892e+03	-1.132417e+01
1.014991e+03	-1.267883e+01
1.016471e+03	-1.248833e+01
1.018634e+03	-1.081617e+01
1.019772e+03	-1.083733e+01
1.022049e+03	-1.178983e+01
1.024440e+03	-1.187450e+01
1.026831e+03	-1.166283e+01
1.028425e+03	-1.178983e+01
1.033776e+03	-1.174750e+01
1.035484e+03	-1.092200e+01
1.037761e+03	-1.157817e+01
1.041404e+03	-1.166283e+01
1.046186e+03	-1.168400e+01
1.047438e+03	-1.145117e+01
1.053586e+03	-1.157817e+01
1.056319e+03	-1.178983e+01
1.059279e+03	-1.143000e+01
1.063605e+03	-1.193800e+01
1.067818e+03	-1.191683e+01
1.069184e+03	-1.170517e+01
1.071689e+03	-1.178983e+01
1.073283e+03	-1.121833e+01
1.078178e+03	-1.214967e+01
1.080455e+03	-1.155700e+01
1.082846e+03	-1.178983e+01
1.086603e+03	-1.168400e+01
1.092296e+03	-1.174750e+01
1.097761e+03	-1.166283e+01
1.099810e+03	-1.195917e+01
1.103567e+03	-1.187450e+01
1.105731e+03	-1.200150e+01
1.107324e+03	-1.121833e+01
1.107894e+03	-1.096433e+01
1.111879e+03	-1.212850e+01
1.117571e+03	-1.191683e+01
1.119962e+03	-1.174750e+01
1.123605e+03	-1.172633e+01
1.126224e+03	-1.149350e+01
1.128729e+03	-1.195917e+01
1.131347e+03	-1.191683e+01
1.133055e+03	-1.159933e+01
1.136584e+03	-1.162050e+01
1.140228e+03	-1.187450e+01
1.144896e+03	-1.178983e+01
1.149336e+03	-1.140883e+01
1.152979e+03	-1.250950e+01
1.154573e+03	-1.248833e+01
1.158672e+03	-1.143000e+01
1.161860e+03	-1.170517e+01
1.168577e+03	-1.189567e+01
1.171309e+03	-1.223433e+01
1.172448e+03	-1.174750e+01
1.181784e+03	-1.172633e+01
1.187704e+03	-1.178983e+01
1.190209e+03	-1.236133e+01
1.193055e+03	-1.227667e+01
1.194535e+03	-1.157817e+01
1.196129e+03	-1.140883e+01
1.198748e+03	-1.174750e+01
1.200911e+03	-1.189567e+01
1.208880e+03	-1.181100e+01
1.210702e+03	-1.217083e+01
1.213321e+03	-1.198033e+01
1.218330e+03	-1.198033e+01
1.220152e+03	-1.147233e+01
1.222201e+03	-1.151467e+01
1.225503e+03	-1.162050e+01
1.227097e+03	-1.178983e+01
1.228805e+03	-1.225550e+01
1.233245e+03	-1.227667e+01
1.234725e+03	-1.206500e+01
1.235977e+03	-1.143000e+01
1.237343e+03	-1.143000e+01
1.240076e+03	-1.189567e+01
1.246793e+03	-1.185333e+01
1.250209e+03	-1.181100e+01
1.251803e+03	-1.159933e+01
1.254080e+03	-1.181100e+01
1.255560e+03	-1.217083e+01
1.258634e+03	-1.212850e+01
1.260342e+03	-1.162050e+01
1.261366e+03	-1.155700e+01
1.264099e+03	-1.183217e+01
1.268767e+03	-1.181100e+01
1.270588e+03	-1.164167e+01
1.274004e+03	-1.206500e+01
1.276509e+03	-1.234017e+01
1.278558e+03	-1.185333e+01
1.282087e+03	-1.155700e+01
1.285275e+03	-1.181100e+01
1.288008e+03	-1.214967e+01
1.290740e+03	-1.217083e+01
1.295408e+03	-1.172633e+01
1.303833e+03	-1.189567e+01
1.310778e+03	-1.189567e+01
1.315332e+03	-1.185333e+01
1.321708e+03	-1.198033e+01
1.326717e+03	-1.187450e+01
1.328425e+03	-1.202267e+01
1.331613e+03	-1.191683e+01
1.335142e+03	-1.178983e+01
1.337761e+03	-1.208617e+01
1.340493e+03	-1.193800e+01
1.347211e+03	-1.200150e+01
1.351879e+03	-1.193800e+01
1.352903e+03	-1.168400e+01
1.356433e+03	-1.185333e+01
1.360531e+03	-1.189567e+01
1.365541e+03	-1.191683e+01
1.366679e+03	-1.200150e+01
1.371233e+03	-1.202267e+01
1.373738e+03	-1.185333e+01
1.380683e+03	-1.191683e+01
1.384440e+03	-1.204383e+01
1.387287e+03	-1.193800e+01
1.388539e+03	-1.189567e+01
1.393890e+03	-1.191683e+01
1.398216e+03	-1.206500e+01
1.400380e+03	-1.187450e+01
1.404934e+03	-1.210733e+01
1.407211e+03	-1.185333e+01
1.410854e+03	-1.212850e+01
1.412334e+03	-1.214967e+01
1.415636e+03	-1.183217e+01
1.423833e+03	-1.206500e+01
1.428729e+03	-1.193800e+01
1.431917e+03	-1.212850e+01
1.435332e+03	-1.191683e+01
1.440911e+03	-1.202267e+01
1.443529e+03	-1.187450e+01
1.446148e+03	-1.195917e+01
1.448197e+03	-1.236133e+01
1.449564e+03	-1.231900e+01
1.451157e+03	-1.178983e+01
1.452979e+03	-1.166283e+01
1.456281e+03	-1.195917e+01
1.458558e+03	-1.214967e+01
1.461063e+03	-1.210733e+01
1.463226e+03	-1.193800e+01
1.467324e+03	-1.202267e+01
1.470512e+03	-1.206500e+01
1.472676e+03	-1.176867e+01
1.474839e+03	-1.225550e+01
1.477230e+03	-1.212850e+01
1.478596e+03	-1.191683e+01
1.479962e+03	-1.193800e+01
1.485882e+03	-1.195917e+01
1.494991e+03	-1.195917e+01
1.496698e+03	-1.208617e+01
1.499545e+03	-1.206500e+01
1.502391e+03	-1.183217e+01
1.506490e+03	-1.210733e+01
1.512638e+03	-1.210733e+01
1.516850e+03	-1.174750e+01
1.520835e+03	-1.227667e+01
1.524706e+03	-1.221317e+01
1.527780e+03	-1.206500e+01
1.530171e+03	-1.178983e+01
1.533245e+03	-1.181100e+01
1.535522e+03	-1.208617e+01
1.539848e+03	-1.214967e+01
1.543605e+03	-1.195917e+01
1.547704e+03	-1.191683e+01
1.553852e+03	-1.195917e+01
1.556357e+03	-1.183217e+01
1.558861e+03	-1.195917e+01
1.561366e+03	-1.217083e+01
1.563529e+03	-1.204383e+01
1.566034e+03	-1.200150e+01
